%YAML 1.1
%TAG !u! tag:unity3d.com,2011:
--- !u!1001 &8816009561437653567
PrefabInstance:
  m_ObjectHideFlags: 0
  serializedVersion: 2
  m_Modification:
    m_TransformParent: {fileID: 0}
    m_Modifications:
    - target: {fileID: 100000, guid: c69d36fddf2835f468dd3e1782e326dd, type: 3}
      propertyPath: m_Name
      value: MedAmmo
      objectReference: {fileID: 0}
    - target: {fileID: 100000, guid: c69d36fddf2835f468dd3e1782e326dd, type: 3}
      propertyPath: m_Layer
      value: 0
      objectReference: {fileID: 0}
    - target: {fileID: 400000, guid: c69d36fddf2835f468dd3e1782e326dd, type: 3}
      propertyPath: m_RootOrder
      value: 0
      objectReference: {fileID: 0}
    - target: {fileID: 400000, guid: c69d36fddf2835f468dd3e1782e326dd, type: 3}
      propertyPath: m_LocalScale.x
      value: 6.5
      objectReference: {fileID: 0}
    - target: {fileID: 400000, guid: c69d36fddf2835f468dd3e1782e326dd, type: 3}
      propertyPath: m_LocalScale.y
      value: 6.5
      objectReference: {fileID: 0}
    - target: {fileID: 400000, guid: c69d36fddf2835f468dd3e1782e326dd, type: 3}
      propertyPath: m_LocalScale.z
      value: 6.5
      objectReference: {fileID: 0}
    - target: {fileID: 400000, guid: c69d36fddf2835f468dd3e1782e326dd, type: 3}
      propertyPath: m_LocalPosition.x
      value: 13.75
      objectReference: {fileID: 0}
    - target: {fileID: 400000, guid: c69d36fddf2835f468dd3e1782e326dd, type: 3}
      propertyPath: m_LocalPosition.y
      value: 0.3
      objectReference: {fileID: 0}
    - target: {fileID: 400000, guid: c69d36fddf2835f468dd3e1782e326dd, type: 3}
      propertyPath: m_LocalPosition.z
      value: -23.75
      objectReference: {fileID: 0}
    - target: {fileID: 400000, guid: c69d36fddf2835f468dd3e1782e326dd, type: 3}
      propertyPath: m_LocalRotation.w
      value: 1
      objectReference: {fileID: 0}
    - target: {fileID: 400000, guid: c69d36fddf2835f468dd3e1782e326dd, type: 3}
      propertyPath: m_LocalRotation.x
      value: -0
      objectReference: {fileID: 0}
    - target: {fileID: 400000, guid: c69d36fddf2835f468dd3e1782e326dd, type: 3}
      propertyPath: m_LocalRotation.y
      value: -0
      objectReference: {fileID: 0}
    - target: {fileID: 400000, guid: c69d36fddf2835f468dd3e1782e326dd, type: 3}
      propertyPath: m_LocalRotation.z
      value: -0
      objectReference: {fileID: 0}
    - target: {fileID: 400000, guid: c69d36fddf2835f468dd3e1782e326dd, type: 3}
      propertyPath: m_LocalEulerAnglesHint.x
      value: 0
      objectReference: {fileID: 0}
    - target: {fileID: 400000, guid: c69d36fddf2835f468dd3e1782e326dd, type: 3}
      propertyPath: m_LocalEulerAnglesHint.y
      value: 0
      objectReference: {fileID: 0}
    - target: {fileID: 400000, guid: c69d36fddf2835f468dd3e1782e326dd, type: 3}
      propertyPath: m_LocalEulerAnglesHint.z
      value: 0
      objectReference: {fileID: 0}
    - target: {fileID: 2300000, guid: c69d36fddf2835f468dd3e1782e326dd, type: 3}
      propertyPath: m_Materials.Array.data[0]
      value: 
      objectReference: {fileID: 2100000, guid: def01e0918d538b44836d1e44c4f9762, type: 2}
    m_RemovedComponents: []
  m_SourcePrefab: {fileID: 100100000, guid: c69d36fddf2835f468dd3e1782e326dd, type: 3}
--- !u!1 &8816009561437752479 stripped
GameObject:
  m_CorrespondingSourceObject: {fileID: 100000, guid: c69d36fddf2835f468dd3e1782e326dd,
    type: 3}
  m_PrefabInstance: {fileID: 8816009561437653567}
  m_PrefabAsset: {fileID: 0}
--- !u!136 &2123130686
CapsuleCollider:
  m_ObjectHideFlags: 0
  m_CorrespondingSourceObject: {fileID: 0}
  m_PrefabInstance: {fileID: 0}
  m_PrefabAsset: {fileID: 0}
  m_GameObject: {fileID: 8816009561437752479}
  m_Material: {fileID: 0}
  m_IsTrigger: 1
  m_Enabled: 1
  m_Radius: 0.0378191
  m_Height: 0.15660797
  m_Direction: 1
  m_Center: {x: 0, y: 0, z: 0}
--- !u!114 &2123130685
MonoBehaviour:
  m_ObjectHideFlags: 0
  m_CorrespondingSourceObject: {fileID: 0}
  m_PrefabInstance: {fileID: 0}
  m_PrefabAsset: {fileID: 0}
  m_GameObject: {fileID: 8816009561437752479}
  m_Enabled: 1
  m_EditorHideFlags: 0
  m_Script: {fileID: 11500000, guid: a0f54019e897d374cae7279f7dc5375e, type: 3}
  m_Name: 
  m_EditorClassIdentifier: 
  ammoType: 0
  amount: 15
  audioSource: {fileID: 1688659579001904267}
--- !u!82 &1688659579001904267
AudioSource:
  m_ObjectHideFlags: 0
  m_CorrespondingSourceObject: {fileID: 0}
  m_PrefabInstance: {fileID: 0}
  m_PrefabAsset: {fileID: 0}
  m_GameObject: {fileID: 8816009561437752479}
  m_Enabled: 1
  serializedVersion: 4
  OutputAudioMixerGroup: {fileID: 0}
  m_audioClip: {fileID: 8300000, guid: 61507aebad0cf874aa8c0d42fcaa4e24, type: 3}
  m_PlayOnAwake: 0
  m_Volume: 1
  m_Pitch: 1
  Loop: 0
  Mute: 0
  Spatialize: 0
  SpatializePostEffects: 0
  Priority: 128
  DopplerLevel: 1
  MinDistance: 1
  MaxDistance: 500
  Pan2D: 0
  rolloffMode: 0
  BypassEffects: 0
  BypassListenerEffects: 0
  BypassReverbZones: 0
  rolloffCustomCurve:
    serializedVersion: 2
    m_Curve:
    - serializedVersion: 3
      time: 0
      value: 1
      inSlope: 0
      outSlope: 0
      tangentMode: 0
      weightedMode: 0
      inWeight: 0.33333334
      outWeight: 0.33333334
    - serializedVersion: 3
      time: 1
      value: 0
      inSlope: 0
      outSlope: 0
      tangentMode: 0
      weightedMode: 0
      inWeight: 0.33333334
      outWeight: 0.33333334
    m_PreInfinity: 2
    m_PostInfinity: 2
    m_RotationOrder: 4
  panLevelCustomCurve:
    serializedVersion: 2
    m_Curve:
    - serializedVersion: 3
      time: 0
      value: 0
      inSlope: 0
      outSlope: 0
      tangentMode: 0
      weightedMode: 0
      inWeight: 0.33333334
      outWeight: 0.33333334
    m_PreInfinity: 2
    m_PostInfinity: 2
    m_RotationOrder: 4
  spreadCustomCurve:
    serializedVersion: 2
    m_Curve:
    - serializedVersion: 3
      time: 0
      value: 0
      inSlope: 0
      outSlope: 0
      tangentMode: 0
      weightedMode: 0
      inWeight: 0.33333334
      outWeight: 0.33333334
    m_PreInfinity: 2
    m_PostInfinity: 2
    m_RotationOrder: 4
  reverbZoneMixCustomCurve:
    serializedVersion: 2
    m_Curve:
    - serializedVersion: 3
      time: 0
      value: 1
      inSlope: 0
      outSlope: 0
      tangentMode: 0
      weightedMode: 0
      inWeight: 0.33333334
      outWeight: 0.33333334
    m_PreInfinity: 2
    m_PostInfinity: 2
    m_RotationOrder: 4
