Library\Bee\artifacts\mvdfrm\Unity.VisualScripting.Core.ref.dll_3AC08951D7FF5D33.mvfrm
Library\Bee\artifacts\mvdfrm\UnityEngine.UI.ref.dll_6C1073D56147DE5F.mvfrm
Library\Bee\artifacts\mvdfrm\Unity.VisualScripting.Antlr3.Runtime.dll_80E5AA8B6DACA0E8.mvfrm
Library\Bee\artifacts\mvdfrm\UnityEngine.AccessibilityModule.dll_1F5CB0F449C395D8.mvfrm
Library\Bee\artifacts\mvdfrm\UnityEngine.AIModule.dll_77A4F6BCB63C5322.mvfrm
Library\Bee\artifacts\mvdfrm\UnityEngine.AndroidJNIModule.dll_8960D57D64F2A9E0.mvfrm
Library\Bee\artifacts\mvdfrm\UnityEngine.AnimationModule.dll_218AB4ADF86B3E7E.mvfrm
Library\Bee\artifacts\mvdfrm\UnityEngine.AssetBundleModule.dll_4805EFEAC5B7316C.mvfrm
Library\Bee\artifacts\mvdfrm\UnityEngine.AudioModule.dll_4A33003C432BCFF0.mvfrm
Library\Bee\artifacts\mvdfrm\UnityEngine.ClothModule.dll_B11B5D371D48AED4.mvfrm
Library\Bee\artifacts\mvdfrm\UnityEngine.CoreModule.dll_4EE1FBEE37E8B5B9.mvfrm
Library\Bee\artifacts\mvdfrm\UnityEngine.CrashReportingModule.dll_4137157944DF96F1.mvfrm
Library\Bee\artifacts\mvdfrm\UnityEngine.DirectorModule.dll_B1AED95FDAC42A16.mvfrm
Library\Bee\artifacts\mvdfrm\UnityEngine.dll_6B2C4896FE7FA68C.mvfrm
Library\Bee\artifacts\mvdfrm\UnityEngine.DSPGraphModule.dll_B7003AC94D24FB37.mvfrm
Library\Bee\artifacts\mvdfrm\UnityEngine.GameCenterModule.dll_B3AE1F982B339AD1.mvfrm
Library\Bee\artifacts\mvdfrm\UnityEngine.GIModule.dll_0FE13FCA51EB3B3C.mvfrm
Library\Bee\artifacts\mvdfrm\UnityEngine.GridModule.dll_2C5317DC503D4BB0.mvfrm
Library\Bee\artifacts\mvdfrm\UnityEngine.HotReloadModule.dll_A2D372B3D39E5A00.mvfrm
Library\Bee\artifacts\mvdfrm\UnityEngine.ImageConversionModule.dll_78DE118805A6700B.mvfrm
Library\Bee\artifacts\mvdfrm\UnityEngine.IMGUIModule.dll_82929FA3095D63D1.mvfrm
Library\Bee\artifacts\mvdfrm\UnityEngine.InputLegacyModule.dll_D94B0B095DA8E75D.mvfrm
Library\Bee\artifacts\mvdfrm\UnityEngine.InputModule.dll_B0A8C7ECB963F494.mvfrm
Library\Bee\artifacts\mvdfrm\UnityEngine.JSONSerializeModule.dll_7F743A3048FEF662.mvfrm
Library\Bee\artifacts\mvdfrm\UnityEngine.LocalizationModule.dll_51E6EDF451F30603.mvfrm
Library\Bee\artifacts\mvdfrm\UnityEngine.ParticleSystemModule.dll_94495EC5B2F1227F.mvfrm
Library\Bee\artifacts\mvdfrm\UnityEngine.PerformanceReportingModule.dll_7FF9757222C24378.mvfrm
Library\Bee\artifacts\mvdfrm\UnityEngine.Physics2DModule.dll_6E30A49E99683613.mvfrm
Library\Bee\artifacts\mvdfrm\UnityEngine.PhysicsModule.dll_94F94245C1B5D8C1.mvfrm
Library\Bee\artifacts\mvdfrm\UnityEngine.ProfilerModule.dll_E3F51296741DB123.mvfrm
Library\Bee\artifacts\mvdfrm\UnityEngine.RuntimeInitializeOnLoadManagerInitializerModule.dll_8D72ED01465A4CDC.mvfrm
Library\Bee\artifacts\mvdfrm\UnityEngine.ScreenCaptureModule.dll_995BE7B55D6B22C4.mvfrm
Library\Bee\artifacts\mvdfrm\UnityEngine.SharedInternalsModule.dll_FCEF505D7CD46B5B.mvfrm
Library\Bee\artifacts\mvdfrm\UnityEngine.SpriteMaskModule.dll_9CDA92284CA3304B.mvfrm
Library\Bee\artifacts\mvdfrm\UnityEngine.SpriteShapeModule.dll_61671D457B596976.mvfrm
Library\Bee\artifacts\mvdfrm\UnityEngine.StreamingModule.dll_D61FA1FE47F2F5BC.mvfrm
Library\Bee\artifacts\mvdfrm\UnityEngine.SubstanceModule.dll_B2CAB6479345F3CA.mvfrm
Library\Bee\artifacts\mvdfrm\UnityEngine.SubsystemsModule.dll_0787F88A1AEB185E.mvfrm
Library\Bee\artifacts\mvdfrm\UnityEngine.TerrainModule.dll_AF3FBDB4977421AF.mvfrm
Library\Bee\artifacts\mvdfrm\UnityEngine.TerrainPhysicsModule.dll_94C40798CC341D0C.mvfrm
Library\Bee\artifacts\mvdfrm\UnityEngine.TextCoreFontEngineModule.dll_1C9EC9FD8FB6E317.mvfrm
Library\Bee\artifacts\mvdfrm\UnityEngine.TextCoreTextEngineModule.dll_6487006F1F3A9C35.mvfrm
Library\Bee\artifacts\mvdfrm\UnityEngine.TextRenderingModule.dll_C29B59C014A2A2B9.mvfrm
Library\Bee\artifacts\mvdfrm\UnityEngine.TilemapModule.dll_4E3C2535AF3102B8.mvfrm
Library\Bee\artifacts\mvdfrm\UnityEngine.TLSModule.dll_793998B8DFEE9155.mvfrm
Library\Bee\artifacts\mvdfrm\UnityEngine.UIElementsModule.dll_0BC659F21E175455.mvfrm
Library\Bee\artifacts\mvdfrm\UnityEngine.UIElementsNativeModule.dll_B3DB85540B4D228C.mvfrm
Library\Bee\artifacts\mvdfrm\UnityEngine.UIModule.dll_731894EA128358CE.mvfrm
Library\Bee\artifacts\mvdfrm\UnityEngine.UmbraModule.dll_C507AC54D0527B63.mvfrm
Library\Bee\artifacts\mvdfrm\UnityEngine.UNETModule.dll_E18843D784F7AB32.mvfrm
Library\Bee\artifacts\mvdfrm\UnityEngine.UnityAnalyticsCommonModule.dll_1B3832B63CAAE1D6.mvfrm
Library\Bee\artifacts\mvdfrm\UnityEngine.UnityAnalyticsModule.dll_B3E8CF8F5F18747B.mvfrm
Library\Bee\artifacts\mvdfrm\UnityEngine.UnityConnectModule.dll_815D329B037740EF.mvfrm
Library\Bee\artifacts\mvdfrm\UnityEngine.UnityCurlModule.dll_54A755DF687F306B.mvfrm
Library\Bee\artifacts\mvdfrm\UnityEngine.UnityTestProtocolModule.dll_E3ECCC7108C87A59.mvfrm
Library\Bee\artifacts\mvdfrm\UnityEngine.UnityWebRequestAssetBundleModule.dll_2F2F32DF194AFB8C.mvfrm
Library\Bee\artifacts\mvdfrm\UnityEngine.UnityWebRequestAudioModule.dll_F7F5C950A92D0E10.mvfrm
Library\Bee\artifacts\mvdfrm\UnityEngine.UnityWebRequestModule.dll_8A7D1932109B0A8A.mvfrm
Library\Bee\artifacts\mvdfrm\UnityEngine.UnityWebRequestTextureModule.dll_0A6C66B0A2B505E5.mvfrm
Library\Bee\artifacts\mvdfrm\UnityEngine.UnityWebRequestWWWModule.dll_2F4945CB0EFA58A1.mvfrm
Library\Bee\artifacts\mvdfrm\UnityEngine.VehiclesModule.dll_2971D2DF54EDF9B1.mvfrm
Library\Bee\artifacts\mvdfrm\UnityEngine.VFXModule.dll_FA183127B65BFAC2.mvfrm
Library\Bee\artifacts\mvdfrm\UnityEngine.VideoModule.dll_6F3C84A705BDEB95.mvfrm
Library\Bee\artifacts\mvdfrm\UnityEngine.VRModule.dll_C5EABB6FB43DDE46.mvfrm
Library\Bee\artifacts\mvdfrm\UnityEngine.WebGLModule.dll_E99F754B3501E1B3.mvfrm
Library\Bee\artifacts\mvdfrm\UnityEngine.WindModule.dll_C530D716C91F3422.mvfrm
Library\Bee\artifacts\mvdfrm\UnityEngine.XRModule.dll_F8A97E743D782BA4.mvfrm