-target:library
-out:"Library/Bee/artifacts/2000b0aP.dag/UnityEngine.Purchasing.Stores.dll"
-refout:"Library/Bee/artifacts/2000b0aP.dag/UnityEngine.Purchasing.Stores.ref.dll"
-define:UNITY_2021_3_24
-define:UNITY_2021_3
-define:UNITY_2021
-define:UNITY_5_3_OR_NEWER
-define:UNITY_5_4_OR_NEWER
-define:UNITY_5_5_OR_NEWER
-define:UNITY_5_6_OR_NEWER
-define:UNITY_2017_1_OR_NEWER
-define:UNITY_2017_2_OR_NEWER
-define:UNITY_2017_3_OR_NEWER
-define:UNITY_2017_4_OR_NEWER
-define:UNITY_2018_1_OR_NEWER
-define:UNITY_2018_2_OR_NEWER
-define:UNITY_2018_3_OR_NEWER
-define:UNITY_2018_4_OR_NEWER
-define:UNITY_2019_1_OR_NEWER
-define:UNITY_2019_2_OR_NEWER
-define:UNITY_2019_3_OR_NEWER
-define:UNITY_2019_4_OR_NEWER
-define:UNITY_2020_1_OR_NEWER
-define:UNITY_2020_2_OR_NEWER
-define:UNITY_2020_3_OR_NEWER
-define:UNITY_2021_1_OR_NEWER
-define:UNITY_2021_2_OR_NEWER
-define:UNITY_2021_3_OR_NEWER
-define:ENABLE_AUDIO
-define:ENABLE_CACHING
-define:ENABLE_CLOTH
-define:ENABLE_MULTIPLE_DISPLAYS
-define:ENABLE_PHYSICS
-define:ENABLE_TEXTURE_STREAMING
-define:ENABLE_UNET
-define:ENABLE_UNITYEVENTS
-define:ENABLE_VR
-define:ENABLE_WEBCAM
-define:ENABLE_UNITYWEBREQUEST
-define:ENABLE_WWW
-define:ENABLE_CLOUD_SERVICES
-define:ENABLE_CLOUD_SERVICES_COLLAB
-define:ENABLE_CLOUD_SERVICES_COLLAB_SOFTLOCKS
-define:ENABLE_CLOUD_SERVICES_ADS
-define:ENABLE_CLOUD_SERVICES_USE_WEBREQUEST
-define:ENABLE_CLOUD_SERVICES_CRASH_REPORTING
-define:ENABLE_CLOUD_SERVICES_PURCHASING
-define:ENABLE_CLOUD_SERVICES_ANALYTICS
-define:ENABLE_CLOUD_SERVICES_UNET
-define:ENABLE_CLOUD_SERVICES_BUILD
-define:ENABLE_CLOUD_LICENSE
-define:ENABLE_EDITOR_HUB_LICENSE
-define:ENABLE_WEBSOCKET_CLIENT
-define:ENABLE_DIRECTOR_AUDIO
-define:ENABLE_DIRECTOR_TEXTURE
-define:ENABLE_MANAGED_JOBS
-define:ENABLE_MANAGED_TRANSFORM_JOBS
-define:ENABLE_MANAGED_ANIMATION_JOBS
-define:ENABLE_MANAGED_AUDIO_JOBS
-define:ENABLE_ENGINE_CODE_STRIPPING
-define:ENABLE_MANAGED_UNITYTLS
-define:RENDER_SOFTWARE_CURSOR
-define:ENABLE_VIDEO
-define:ENABLE_ACCELERATOR_CLIENT_DEBUGGING
-define:PLATFORM_WEBGL
-define:TEXTCORE_1_0_OR_NEWER
-define:UNITY_WEBGL
-define:UNITY_WEBGL_API
-define:UNITY_DISABLE_WEB_VERIFICATION
-define:UNITY_GFX_USE_PLATFORM_VSYNC
-define:ENABLE_CRUNCH_TEXTURE_COMPRESSION
-define:ENABLE_SPATIALTRACKING
-define:ENABLE_IL2CPP
-define:NET_STANDARD_2_0
-define:NET_STANDARD
-define:NET_STANDARD_2_1
-define:NETSTANDARD
-define:NETSTANDARD2_1
-define:ENABLE_CUSTOM_RENDER_TEXTURE
-define:ENABLE_DIRECTOR
-define:ENABLE_LOCALIZATION
-define:ENABLE_SPRITES
-define:ENABLE_TERRAIN
-define:ENABLE_TILEMAP
-define:ENABLE_TIMELINE
-define:ENABLE_LEGACY_INPUT_MANAGER
-define:TEXTCORE_FONT_ENGINE_1_5_OR_NEWER
-define:UNITY_POST_PROCESSING_STACK_V2
-define:CSHARP_7_OR_LATER
-define:CSHARP_7_3_OR_NEWER
-r:"I:/programs/unity/Editor/2021.3.24f1/Editor/Data/NetStandard/compat/2.1.0/shims/netfx/mscorlib.dll"
-r:"I:/programs/unity/Editor/2021.3.24f1/Editor/Data/NetStandard/compat/2.1.0/shims/netfx/System.ComponentModel.Composition.dll"
-r:"I:/programs/unity/Editor/2021.3.24f1/Editor/Data/NetStandard/compat/2.1.0/shims/netfx/System.Core.dll"
-r:"I:/programs/unity/Editor/2021.3.24f1/Editor/Data/NetStandard/compat/2.1.0/shims/netfx/System.Data.dll"
-r:"I:/programs/unity/Editor/2021.3.24f1/Editor/Data/NetStandard/compat/2.1.0/shims/netfx/System.dll"
-r:"I:/programs/unity/Editor/2021.3.24f1/Editor/Data/NetStandard/compat/2.1.0/shims/netfx/System.Drawing.dll"
-r:"I:/programs/unity/Editor/2021.3.24f1/Editor/Data/NetStandard/compat/2.1.0/shims/netfx/System.IO.Compression.FileSystem.dll"
-r:"I:/programs/unity/Editor/2021.3.24f1/Editor/Data/NetStandard/compat/2.1.0/shims/netfx/System.Net.dll"
-r:"I:/programs/unity/Editor/2021.3.24f1/Editor/Data/NetStandard/compat/2.1.0/shims/netfx/System.Numerics.dll"
-r:"I:/programs/unity/Editor/2021.3.24f1/Editor/Data/NetStandard/compat/2.1.0/shims/netfx/System.Runtime.Serialization.dll"
-r:"I:/programs/unity/Editor/2021.3.24f1/Editor/Data/NetStandard/compat/2.1.0/shims/netfx/System.ServiceModel.Web.dll"
-r:"I:/programs/unity/Editor/2021.3.24f1/Editor/Data/NetStandard/compat/2.1.0/shims/netfx/System.Transactions.dll"
-r:"I:/programs/unity/Editor/2021.3.24f1/Editor/Data/NetStandard/compat/2.1.0/shims/netfx/System.Web.dll"
-r:"I:/programs/unity/Editor/2021.3.24f1/Editor/Data/NetStandard/compat/2.1.0/shims/netfx/System.Windows.dll"
-r:"I:/programs/unity/Editor/2021.3.24f1/Editor/Data/NetStandard/compat/2.1.0/shims/netfx/System.Xml.dll"
-r:"I:/programs/unity/Editor/2021.3.24f1/Editor/Data/NetStandard/compat/2.1.0/shims/netfx/System.Xml.Linq.dll"
-r:"I:/programs/unity/Editor/2021.3.24f1/Editor/Data/NetStandard/compat/2.1.0/shims/netfx/System.Xml.Serialization.dll"
-r:"I:/programs/unity/Editor/2021.3.24f1/Editor/Data/NetStandard/compat/2.1.0/shims/netstandard/Microsoft.Win32.Primitives.dll"
-r:"I:/programs/unity/Editor/2021.3.24f1/Editor/Data/NetStandard/compat/2.1.0/shims/netstandard/System.AppContext.dll"
-r:"I:/programs/unity/Editor/2021.3.24f1/Editor/Data/NetStandard/compat/2.1.0/shims/netstandard/System.Buffers.dll"
-r:"I:/programs/unity/Editor/2021.3.24f1/Editor/Data/NetStandard/compat/2.1.0/shims/netstandard/System.Collections.Concurrent.dll"
-r:"I:/programs/unity/Editor/2021.3.24f1/Editor/Data/NetStandard/compat/2.1.0/shims/netstandard/System.Collections.dll"
-r:"I:/programs/unity/Editor/2021.3.24f1/Editor/Data/NetStandard/compat/2.1.0/shims/netstandard/System.Collections.NonGeneric.dll"
-r:"I:/programs/unity/Editor/2021.3.24f1/Editor/Data/NetStandard/compat/2.1.0/shims/netstandard/System.Collections.Specialized.dll"
-r:"I:/programs/unity/Editor/2021.3.24f1/Editor/Data/NetStandard/compat/2.1.0/shims/netstandard/System.ComponentModel.dll"
-r:"I:/programs/unity/Editor/2021.3.24f1/Editor/Data/NetStandard/compat/2.1.0/shims/netstandard/System.ComponentModel.EventBasedAsync.dll"
-r:"I:/programs/unity/Editor/2021.3.24f1/Editor/Data/NetStandard/compat/2.1.0/shims/netstandard/System.ComponentModel.Primitives.dll"
-r:"I:/programs/unity/Editor/2021.3.24f1/Editor/Data/NetStandard/compat/2.1.0/shims/netstandard/System.ComponentModel.TypeConverter.dll"
-r:"I:/programs/unity/Editor/2021.3.24f1/Editor/Data/NetStandard/compat/2.1.0/shims/netstandard/System.Console.dll"
-r:"I:/programs/unity/Editor/2021.3.24f1/Editor/Data/NetStandard/compat/2.1.0/shims/netstandard/System.Data.Common.dll"
-r:"I:/programs/unity/Editor/2021.3.24f1/Editor/Data/NetStandard/compat/2.1.0/shims/netstandard/System.Diagnostics.Contracts.dll"
-r:"I:/programs/unity/Editor/2021.3.24f1/Editor/Data/NetStandard/compat/2.1.0/shims/netstandard/System.Diagnostics.Debug.dll"
-r:"I:/programs/unity/Editor/2021.3.24f1/Editor/Data/NetStandard/compat/2.1.0/shims/netstandard/System.Diagnostics.FileVersionInfo.dll"
-r:"I:/programs/unity/Editor/2021.3.24f1/Editor/Data/NetStandard/compat/2.1.0/shims/netstandard/System.Diagnostics.Process.dll"
-r:"I:/programs/unity/Editor/2021.3.24f1/Editor/Data/NetStandard/compat/2.1.0/shims/netstandard/System.Diagnostics.StackTrace.dll"
-r:"I:/programs/unity/Editor/2021.3.24f1/Editor/Data/NetStandard/compat/2.1.0/shims/netstandard/System.Diagnostics.TextWriterTraceListener.dll"
-r:"I:/programs/unity/Editor/2021.3.24f1/Editor/Data/NetStandard/compat/2.1.0/shims/netstandard/System.Diagnostics.Tools.dll"
-r:"I:/programs/unity/Editor/2021.3.24f1/Editor/Data/NetStandard/compat/2.1.0/shims/netstandard/System.Diagnostics.TraceSource.dll"
-r:"I:/programs/unity/Editor/2021.3.24f1/Editor/Data/NetStandard/compat/2.1.0/shims/netstandard/System.Diagnostics.Tracing.dll"
-r:"I:/programs/unity/Editor/2021.3.24f1/Editor/Data/NetStandard/compat/2.1.0/shims/netstandard/System.Drawing.Primitives.dll"
-r:"I:/programs/unity/Editor/2021.3.24f1/Editor/Data/NetStandard/compat/2.1.0/shims/netstandard/System.Dynamic.Runtime.dll"
-r:"I:/programs/unity/Editor/2021.3.24f1/Editor/Data/NetStandard/compat/2.1.0/shims/netstandard/System.Globalization.Calendars.dll"
-r:"I:/programs/unity/Editor/2021.3.24f1/Editor/Data/NetStandard/compat/2.1.0/shims/netstandard/System.Globalization.dll"
-r:"I:/programs/unity/Editor/2021.3.24f1/Editor/Data/NetStandard/compat/2.1.0/shims/netstandard/System.Globalization.Extensions.dll"
-r:"I:/programs/unity/Editor/2021.3.24f1/Editor/Data/NetStandard/compat/2.1.0/shims/netstandard/System.IO.Compression.dll"
-r:"I:/programs/unity/Editor/2021.3.24f1/Editor/Data/NetStandard/compat/2.1.0/shims/netstandard/System.IO.Compression.ZipFile.dll"
-r:"I:/programs/unity/Editor/2021.3.24f1/Editor/Data/NetStandard/compat/2.1.0/shims/netstandard/System.IO.dll"
-r:"I:/programs/unity/Editor/2021.3.24f1/Editor/Data/NetStandard/compat/2.1.0/shims/netstandard/System.IO.FileSystem.dll"
-r:"I:/programs/unity/Editor/2021.3.24f1/Editor/Data/NetStandard/compat/2.1.0/shims/netstandard/System.IO.FileSystem.DriveInfo.dll"
-r:"I:/programs/unity/Editor/2021.3.24f1/Editor/Data/NetStandard/compat/2.1.0/shims/netstandard/System.IO.FileSystem.Primitives.dll"
-r:"I:/programs/unity/Editor/2021.3.24f1/Editor/Data/NetStandard/compat/2.1.0/shims/netstandard/System.IO.FileSystem.Watcher.dll"
-r:"I:/programs/unity/Editor/2021.3.24f1/Editor/Data/NetStandard/compat/2.1.0/shims/netstandard/System.IO.IsolatedStorage.dll"
-r:"I:/programs/unity/Editor/2021.3.24f1/Editor/Data/NetStandard/compat/2.1.0/shims/netstandard/System.IO.MemoryMappedFiles.dll"
-r:"I:/programs/unity/Editor/2021.3.24f1/Editor/Data/NetStandard/compat/2.1.0/shims/netstandard/System.IO.Pipes.dll"
-r:"I:/programs/unity/Editor/2021.3.24f1/Editor/Data/NetStandard/compat/2.1.0/shims/netstandard/System.IO.UnmanagedMemoryStream.dll"
-r:"I:/programs/unity/Editor/2021.3.24f1/Editor/Data/NetStandard/compat/2.1.0/shims/netstandard/System.Linq.dll"
-r:"I:/programs/unity/Editor/2021.3.24f1/Editor/Data/NetStandard/compat/2.1.0/shims/netstandard/System.Linq.Expressions.dll"
-r:"I:/programs/unity/Editor/2021.3.24f1/Editor/Data/NetStandard/compat/2.1.0/shims/netstandard/System.Linq.Parallel.dll"
-r:"I:/programs/unity/Editor/2021.3.24f1/Editor/Data/NetStandard/compat/2.1.0/shims/netstandard/System.Linq.Queryable.dll"
-r:"I:/programs/unity/Editor/2021.3.24f1/Editor/Data/NetStandard/compat/2.1.0/shims/netstandard/System.Memory.dll"
-r:"I:/programs/unity/Editor/2021.3.24f1/Editor/Data/NetStandard/compat/2.1.0/shims/netstandard/System.Net.Http.dll"
-r:"I:/programs/unity/Editor/2021.3.24f1/Editor/Data/NetStandard/compat/2.1.0/shims/netstandard/System.Net.NameResolution.dll"
-r:"I:/programs/unity/Editor/2021.3.24f1/Editor/Data/NetStandard/compat/2.1.0/shims/netstandard/System.Net.NetworkInformation.dll"
-r:"I:/programs/unity/Editor/2021.3.24f1/Editor/Data/NetStandard/compat/2.1.0/shims/netstandard/System.Net.Ping.dll"
-r:"I:/programs/unity/Editor/2021.3.24f1/Editor/Data/NetStandard/compat/2.1.0/shims/netstandard/System.Net.Primitives.dll"
-r:"I:/programs/unity/Editor/2021.3.24f1/Editor/Data/NetStandard/compat/2.1.0/shims/netstandard/System.Net.Requests.dll"
-r:"I:/programs/unity/Editor/2021.3.24f1/Editor/Data/NetStandard/compat/2.1.0/shims/netstandard/System.Net.Security.dll"
-r:"I:/programs/unity/Editor/2021.3.24f1/Editor/Data/NetStandard/compat/2.1.0/shims/netstandard/System.Net.Sockets.dll"
-r:"I:/programs/unity/Editor/2021.3.24f1/Editor/Data/NetStandard/compat/2.1.0/shims/netstandard/System.Net.WebHeaderCollection.dll"
-r:"I:/programs/unity/Editor/2021.3.24f1/Editor/Data/NetStandard/compat/2.1.0/shims/netstandard/System.Net.WebSockets.Client.dll"
-r:"I:/programs/unity/Editor/2021.3.24f1/Editor/Data/NetStandard/compat/2.1.0/shims/netstandard/System.Net.WebSockets.dll"
-r:"I:/programs/unity/Editor/2021.3.24f1/Editor/Data/NetStandard/compat/2.1.0/shims/netstandard/System.Numerics.Vectors.dll"
-r:"I:/programs/unity/Editor/2021.3.24f1/Editor/Data/NetStandard/compat/2.1.0/shims/netstandard/System.ObjectModel.dll"
-r:"I:/programs/unity/Editor/2021.3.24f1/Editor/Data/NetStandard/compat/2.1.0/shims/netstandard/System.Reflection.DispatchProxy.dll"
-r:"I:/programs/unity/Editor/2021.3.24f1/Editor/Data/NetStandard/compat/2.1.0/shims/netstandard/System.Reflection.dll"
-r:"I:/programs/unity/Editor/2021.3.24f1/Editor/Data/NetStandard/compat/2.1.0/shims/netstandard/System.Reflection.Emit.dll"
-r:"I:/programs/unity/Editor/2021.3.24f1/Editor/Data/NetStandard/compat/2.1.0/shims/netstandard/System.Reflection.Emit.ILGeneration.dll"
-r:"I:/programs/unity/Editor/2021.3.24f1/Editor/Data/NetStandard/compat/2.1.0/shims/netstandard/System.Reflection.Emit.Lightweight.dll"
-r:"I:/programs/unity/Editor/2021.3.24f1/Editor/Data/NetStandard/compat/2.1.0/shims/netstandard/System.Reflection.Extensions.dll"
-r:"I:/programs/unity/Editor/2021.3.24f1/Editor/Data/NetStandard/compat/2.1.0/shims/netstandard/System.Reflection.Primitives.dll"
-r:"I:/programs/unity/Editor/2021.3.24f1/Editor/Data/NetStandard/compat/2.1.0/shims/netstandard/System.Resources.Reader.dll"
-r:"I:/programs/unity/Editor/2021.3.24f1/Editor/Data/NetStandard/compat/2.1.0/shims/netstandard/System.Resources.ResourceManager.dll"
-r:"I:/programs/unity/Editor/2021.3.24f1/Editor/Data/NetStandard/compat/2.1.0/shims/netstandard/System.Resources.Writer.dll"
-r:"I:/programs/unity/Editor/2021.3.24f1/Editor/Data/NetStandard/compat/2.1.0/shims/netstandard/System.Runtime.CompilerServices.VisualC.dll"
-r:"I:/programs/unity/Editor/2021.3.24f1/Editor/Data/NetStandard/compat/2.1.0/shims/netstandard/System.Runtime.dll"
-r:"I:/programs/unity/Editor/2021.3.24f1/Editor/Data/NetStandard/compat/2.1.0/shims/netstandard/System.Runtime.Extensions.dll"
-r:"I:/programs/unity/Editor/2021.3.24f1/Editor/Data/NetStandard/compat/2.1.0/shims/netstandard/System.Runtime.Handles.dll"
-r:"I:/programs/unity/Editor/2021.3.24f1/Editor/Data/NetStandard/compat/2.1.0/shims/netstandard/System.Runtime.InteropServices.dll"
-r:"I:/programs/unity/Editor/2021.3.24f1/Editor/Data/NetStandard/compat/2.1.0/shims/netstandard/System.Runtime.InteropServices.RuntimeInformation.dll"
-r:"I:/programs/unity/Editor/2021.3.24f1/Editor/Data/NetStandard/compat/2.1.0/shims/netstandard/System.Runtime.Numerics.dll"
-r:"I:/programs/unity/Editor/2021.3.24f1/Editor/Data/NetStandard/compat/2.1.0/shims/netstandard/System.Runtime.Serialization.Formatters.dll"
-r:"I:/programs/unity/Editor/2021.3.24f1/Editor/Data/NetStandard/compat/2.1.0/shims/netstandard/System.Runtime.Serialization.Json.dll"
-r:"I:/programs/unity/Editor/2021.3.24f1/Editor/Data/NetStandard/compat/2.1.0/shims/netstandard/System.Runtime.Serialization.Primitives.dll"
-r:"I:/programs/unity/Editor/2021.3.24f1/Editor/Data/NetStandard/compat/2.1.0/shims/netstandard/System.Runtime.Serialization.Xml.dll"
-r:"I:/programs/unity/Editor/2021.3.24f1/Editor/Data/NetStandard/compat/2.1.0/shims/netstandard/System.Security.Claims.dll"
-r:"I:/programs/unity/Editor/2021.3.24f1/Editor/Data/NetStandard/compat/2.1.0/shims/netstandard/System.Security.Cryptography.Algorithms.dll"
-r:"I:/programs/unity/Editor/2021.3.24f1/Editor/Data/NetStandard/compat/2.1.0/shims/netstandard/System.Security.Cryptography.Csp.dll"
-r:"I:/programs/unity/Editor/2021.3.24f1/Editor/Data/NetStandard/compat/2.1.0/shims/netstandard/System.Security.Cryptography.Encoding.dll"
-r:"I:/programs/unity/Editor/2021.3.24f1/Editor/Data/NetStandard/compat/2.1.0/shims/netstandard/System.Security.Cryptography.Primitives.dll"
-r:"I:/programs/unity/Editor/2021.3.24f1/Editor/Data/NetStandard/compat/2.1.0/shims/netstandard/System.Security.Cryptography.X509Certificates.dll"
-r:"I:/programs/unity/Editor/2021.3.24f1/Editor/Data/NetStandard/compat/2.1.0/shims/netstandard/System.Security.Principal.dll"
-r:"I:/programs/unity/Editor/2021.3.24f1/Editor/Data/NetStandard/compat/2.1.0/shims/netstandard/System.Security.SecureString.dll"
-r:"I:/programs/unity/Editor/2021.3.24f1/Editor/Data/NetStandard/compat/2.1.0/shims/netstandard/System.Text.Encoding.dll"
-r:"I:/programs/unity/Editor/2021.3.24f1/Editor/Data/NetStandard/compat/2.1.0/shims/netstandard/System.Text.Encoding.Extensions.dll"
-r:"I:/programs/unity/Editor/2021.3.24f1/Editor/Data/NetStandard/compat/2.1.0/shims/netstandard/System.Text.RegularExpressions.dll"
-r:"I:/programs/unity/Editor/2021.3.24f1/Editor/Data/NetStandard/compat/2.1.0/shims/netstandard/System.Threading.dll"
-r:"I:/programs/unity/Editor/2021.3.24f1/Editor/Data/NetStandard/compat/2.1.0/shims/netstandard/System.Threading.Overlapped.dll"
-r:"I:/programs/unity/Editor/2021.3.24f1/Editor/Data/NetStandard/compat/2.1.0/shims/netstandard/System.Threading.Tasks.dll"
-r:"I:/programs/unity/Editor/2021.3.24f1/Editor/Data/NetStandard/compat/2.1.0/shims/netstandard/System.Threading.Tasks.Extensions.dll"
-r:"I:/programs/unity/Editor/2021.3.24f1/Editor/Data/NetStandard/compat/2.1.0/shims/netstandard/System.Threading.Tasks.Parallel.dll"
-r:"I:/programs/unity/Editor/2021.3.24f1/Editor/Data/NetStandard/compat/2.1.0/shims/netstandard/System.Threading.Thread.dll"
-r:"I:/programs/unity/Editor/2021.3.24f1/Editor/Data/NetStandard/compat/2.1.0/shims/netstandard/System.Threading.ThreadPool.dll"
-r:"I:/programs/unity/Editor/2021.3.24f1/Editor/Data/NetStandard/compat/2.1.0/shims/netstandard/System.Threading.Timer.dll"
-r:"I:/programs/unity/Editor/2021.3.24f1/Editor/Data/NetStandard/compat/2.1.0/shims/netstandard/System.ValueTuple.dll"
-r:"I:/programs/unity/Editor/2021.3.24f1/Editor/Data/NetStandard/compat/2.1.0/shims/netstandard/System.Xml.ReaderWriter.dll"
-r:"I:/programs/unity/Editor/2021.3.24f1/Editor/Data/NetStandard/compat/2.1.0/shims/netstandard/System.Xml.XDocument.dll"
-r:"I:/programs/unity/Editor/2021.3.24f1/Editor/Data/NetStandard/compat/2.1.0/shims/netstandard/System.Xml.XmlDocument.dll"
-r:"I:/programs/unity/Editor/2021.3.24f1/Editor/Data/NetStandard/compat/2.1.0/shims/netstandard/System.Xml.XmlSerializer.dll"
-r:"I:/programs/unity/Editor/2021.3.24f1/Editor/Data/NetStandard/compat/2.1.0/shims/netstandard/System.Xml.XPath.dll"
-r:"I:/programs/unity/Editor/2021.3.24f1/Editor/Data/NetStandard/compat/2.1.0/shims/netstandard/System.Xml.XPath.XDocument.dll"
-r:"I:/programs/unity/Editor/2021.3.24f1/Editor/Data/NetStandard/Extensions/2.0.0/System.Runtime.InteropServices.WindowsRuntime.dll"
-r:"I:/programs/unity/Editor/2021.3.24f1/Editor/Data/NetStandard/ref/2.1.0/netstandard.dll"
-r:"I:/programs/unity/Editor/2021.3.24f1/Editor/Data/PlaybackEngines/WebGLSupport/Managed/UnityEngine.AccessibilityModule.dll"
-r:"I:/programs/unity/Editor/2021.3.24f1/Editor/Data/PlaybackEngines/WebGLSupport/Managed/UnityEngine.AIModule.dll"
-r:"I:/programs/unity/Editor/2021.3.24f1/Editor/Data/PlaybackEngines/WebGLSupport/Managed/UnityEngine.AndroidJNIModule.dll"
-r:"I:/programs/unity/Editor/2021.3.24f1/Editor/Data/PlaybackEngines/WebGLSupport/Managed/UnityEngine.AnimationModule.dll"
-r:"I:/programs/unity/Editor/2021.3.24f1/Editor/Data/PlaybackEngines/WebGLSupport/Managed/UnityEngine.AssetBundleModule.dll"
-r:"I:/programs/unity/Editor/2021.3.24f1/Editor/Data/PlaybackEngines/WebGLSupport/Managed/UnityEngine.AudioModule.dll"
-r:"I:/programs/unity/Editor/2021.3.24f1/Editor/Data/PlaybackEngines/WebGLSupport/Managed/UnityEngine.ClothModule.dll"
-r:"I:/programs/unity/Editor/2021.3.24f1/Editor/Data/PlaybackEngines/WebGLSupport/Managed/UnityEngine.CoreModule.dll"
-r:"I:/programs/unity/Editor/2021.3.24f1/Editor/Data/PlaybackEngines/WebGLSupport/Managed/UnityEngine.CrashReportingModule.dll"
-r:"I:/programs/unity/Editor/2021.3.24f1/Editor/Data/PlaybackEngines/WebGLSupport/Managed/UnityEngine.DirectorModule.dll"
-r:"I:/programs/unity/Editor/2021.3.24f1/Editor/Data/PlaybackEngines/WebGLSupport/Managed/UnityEngine.dll"
-r:"I:/programs/unity/Editor/2021.3.24f1/Editor/Data/PlaybackEngines/WebGLSupport/Managed/UnityEngine.DSPGraphModule.dll"
-r:"I:/programs/unity/Editor/2021.3.24f1/Editor/Data/PlaybackEngines/WebGLSupport/Managed/UnityEngine.GameCenterModule.dll"
-r:"I:/programs/unity/Editor/2021.3.24f1/Editor/Data/PlaybackEngines/WebGLSupport/Managed/UnityEngine.GIModule.dll"
-r:"I:/programs/unity/Editor/2021.3.24f1/Editor/Data/PlaybackEngines/WebGLSupport/Managed/UnityEngine.GridModule.dll"
-r:"I:/programs/unity/Editor/2021.3.24f1/Editor/Data/PlaybackEngines/WebGLSupport/Managed/UnityEngine.HotReloadModule.dll"
-r:"I:/programs/unity/Editor/2021.3.24f1/Editor/Data/PlaybackEngines/WebGLSupport/Managed/UnityEngine.ImageConversionModule.dll"
-r:"I:/programs/unity/Editor/2021.3.24f1/Editor/Data/PlaybackEngines/WebGLSupport/Managed/UnityEngine.IMGUIModule.dll"
-r:"I:/programs/unity/Editor/2021.3.24f1/Editor/Data/PlaybackEngines/WebGLSupport/Managed/UnityEngine.InputLegacyModule.dll"
-r:"I:/programs/unity/Editor/2021.3.24f1/Editor/Data/PlaybackEngines/WebGLSupport/Managed/UnityEngine.InputModule.dll"
-r:"I:/programs/unity/Editor/2021.3.24f1/Editor/Data/PlaybackEngines/WebGLSupport/Managed/UnityEngine.JSONSerializeModule.dll"
-r:"I:/programs/unity/Editor/2021.3.24f1/Editor/Data/PlaybackEngines/WebGLSupport/Managed/UnityEngine.LocalizationModule.dll"
-r:"I:/programs/unity/Editor/2021.3.24f1/Editor/Data/PlaybackEngines/WebGLSupport/Managed/UnityEngine.ParticleSystemModule.dll"
-r:"I:/programs/unity/Editor/2021.3.24f1/Editor/Data/PlaybackEngines/WebGLSupport/Managed/UnityEngine.PerformanceReportingModule.dll"
-r:"I:/programs/unity/Editor/2021.3.24f1/Editor/Data/PlaybackEngines/WebGLSupport/Managed/UnityEngine.Physics2DModule.dll"
-r:"I:/programs/unity/Editor/2021.3.24f1/Editor/Data/PlaybackEngines/WebGLSupport/Managed/UnityEngine.PhysicsModule.dll"
-r:"I:/programs/unity/Editor/2021.3.24f1/Editor/Data/PlaybackEngines/WebGLSupport/Managed/UnityEngine.ProfilerModule.dll"
-r:"I:/programs/unity/Editor/2021.3.24f1/Editor/Data/PlaybackEngines/WebGLSupport/Managed/UnityEngine.RuntimeInitializeOnLoadManagerInitializerModule.dll"
-r:"I:/programs/unity/Editor/2021.3.24f1/Editor/Data/PlaybackEngines/WebGLSupport/Managed/UnityEngine.ScreenCaptureModule.dll"
-r:"I:/programs/unity/Editor/2021.3.24f1/Editor/Data/PlaybackEngines/WebGLSupport/Managed/UnityEngine.SharedInternalsModule.dll"
-r:"I:/programs/unity/Editor/2021.3.24f1/Editor/Data/PlaybackEngines/WebGLSupport/Managed/UnityEngine.SpriteMaskModule.dll"
-r:"I:/programs/unity/Editor/2021.3.24f1/Editor/Data/PlaybackEngines/WebGLSupport/Managed/UnityEngine.SpriteShapeModule.dll"
-r:"I:/programs/unity/Editor/2021.3.24f1/Editor/Data/PlaybackEngines/WebGLSupport/Managed/UnityEngine.StreamingModule.dll"
-r:"I:/programs/unity/Editor/2021.3.24f1/Editor/Data/PlaybackEngines/WebGLSupport/Managed/UnityEngine.SubstanceModule.dll"
-r:"I:/programs/unity/Editor/2021.3.24f1/Editor/Data/PlaybackEngines/WebGLSupport/Managed/UnityEngine.SubsystemsModule.dll"
-r:"I:/programs/unity/Editor/2021.3.24f1/Editor/Data/PlaybackEngines/WebGLSupport/Managed/UnityEngine.TerrainModule.dll"
-r:"I:/programs/unity/Editor/2021.3.24f1/Editor/Data/PlaybackEngines/WebGLSupport/Managed/UnityEngine.TerrainPhysicsModule.dll"
-r:"I:/programs/unity/Editor/2021.3.24f1/Editor/Data/PlaybackEngines/WebGLSupport/Managed/UnityEngine.TextCoreFontEngineModule.dll"
-r:"I:/programs/unity/Editor/2021.3.24f1/Editor/Data/PlaybackEngines/WebGLSupport/Managed/UnityEngine.TextCoreTextEngineModule.dll"
-r:"I:/programs/unity/Editor/2021.3.24f1/Editor/Data/PlaybackEngines/WebGLSupport/Managed/UnityEngine.TextRenderingModule.dll"
-r:"I:/programs/unity/Editor/2021.3.24f1/Editor/Data/PlaybackEngines/WebGLSupport/Managed/UnityEngine.TilemapModule.dll"
-r:"I:/programs/unity/Editor/2021.3.24f1/Editor/Data/PlaybackEngines/WebGLSupport/Managed/UnityEngine.TLSModule.dll"
-r:"I:/programs/unity/Editor/2021.3.24f1/Editor/Data/PlaybackEngines/WebGLSupport/Managed/UnityEngine.UIElementsModule.dll"
-r:"I:/programs/unity/Editor/2021.3.24f1/Editor/Data/PlaybackEngines/WebGLSupport/Managed/UnityEngine.UIElementsNativeModule.dll"
-r:"I:/programs/unity/Editor/2021.3.24f1/Editor/Data/PlaybackEngines/WebGLSupport/Managed/UnityEngine.UIModule.dll"
-r:"I:/programs/unity/Editor/2021.3.24f1/Editor/Data/PlaybackEngines/WebGLSupport/Managed/UnityEngine.UmbraModule.dll"
-r:"I:/programs/unity/Editor/2021.3.24f1/Editor/Data/PlaybackEngines/WebGLSupport/Managed/UnityEngine.UNETModule.dll"
-r:"I:/programs/unity/Editor/2021.3.24f1/Editor/Data/PlaybackEngines/WebGLSupport/Managed/UnityEngine.UnityAnalyticsCommonModule.dll"
-r:"I:/programs/unity/Editor/2021.3.24f1/Editor/Data/PlaybackEngines/WebGLSupport/Managed/UnityEngine.UnityAnalyticsModule.dll"
-r:"I:/programs/unity/Editor/2021.3.24f1/Editor/Data/PlaybackEngines/WebGLSupport/Managed/UnityEngine.UnityConnectModule.dll"
-r:"I:/programs/unity/Editor/2021.3.24f1/Editor/Data/PlaybackEngines/WebGLSupport/Managed/UnityEngine.UnityCurlModule.dll"
-r:"I:/programs/unity/Editor/2021.3.24f1/Editor/Data/PlaybackEngines/WebGLSupport/Managed/UnityEngine.UnityTestProtocolModule.dll"
-r:"I:/programs/unity/Editor/2021.3.24f1/Editor/Data/PlaybackEngines/WebGLSupport/Managed/UnityEngine.UnityWebRequestAssetBundleModule.dll"
-r:"I:/programs/unity/Editor/2021.3.24f1/Editor/Data/PlaybackEngines/WebGLSupport/Managed/UnityEngine.UnityWebRequestAudioModule.dll"
-r:"I:/programs/unity/Editor/2021.3.24f1/Editor/Data/PlaybackEngines/WebGLSupport/Managed/UnityEngine.UnityWebRequestModule.dll"
-r:"I:/programs/unity/Editor/2021.3.24f1/Editor/Data/PlaybackEngines/WebGLSupport/Managed/UnityEngine.UnityWebRequestTextureModule.dll"
-r:"I:/programs/unity/Editor/2021.3.24f1/Editor/Data/PlaybackEngines/WebGLSupport/Managed/UnityEngine.UnityWebRequestWWWModule.dll"
-r:"I:/programs/unity/Editor/2021.3.24f1/Editor/Data/PlaybackEngines/WebGLSupport/Managed/UnityEngine.VehiclesModule.dll"
-r:"I:/programs/unity/Editor/2021.3.24f1/Editor/Data/PlaybackEngines/WebGLSupport/Managed/UnityEngine.VFXModule.dll"
-r:"I:/programs/unity/Editor/2021.3.24f1/Editor/Data/PlaybackEngines/WebGLSupport/Managed/UnityEngine.VideoModule.dll"
-r:"I:/programs/unity/Editor/2021.3.24f1/Editor/Data/PlaybackEngines/WebGLSupport/Managed/UnityEngine.VRModule.dll"
-r:"I:/programs/unity/Editor/2021.3.24f1/Editor/Data/PlaybackEngines/WebGLSupport/Managed/UnityEngine.WebGLModule.dll"
-r:"I:/programs/unity/Editor/2021.3.24f1/Editor/Data/PlaybackEngines/WebGLSupport/Managed/UnityEngine.WindModule.dll"
-r:"I:/programs/unity/Editor/2021.3.24f1/Editor/Data/PlaybackEngines/WebGLSupport/Managed/UnityEngine.XRModule.dll"
-r:"Library/Bee/artifacts/2000b0aP.dag/Purchasing.Common.ref.dll"
-r:"Library/Bee/artifacts/2000b0aP.dag/Unity.Services.Core.Internal.ref.dll"
-r:"Library/Bee/artifacts/2000b0aP.dag/Unity.Services.Core.ref.dll"
-r:"Library/Bee/artifacts/2000b0aP.dag/UnityEngine.Purchasing.AppleCore.ref.dll"
-r:"Library/Bee/artifacts/2000b0aP.dag/UnityEngine.Purchasing.AppleMacosStub.ref.dll"
-r:"Library/Bee/artifacts/2000b0aP.dag/UnityEngine.Purchasing.AppleStub.ref.dll"
-r:"Library/Bee/artifacts/2000b0aP.dag/UnityEngine.Purchasing.ref.dll"
-r:"Library/Bee/artifacts/2000b0aP.dag/UnityEngine.Purchasing.SecurityCore.ref.dll"
-r:"Library/Bee/artifacts/2000b0aP.dag/UnityEngine.Purchasing.SecurityStub.ref.dll"
-r:"Library/Bee/artifacts/2000b0aP.dag/UnityEngine.Purchasing.WinRTCore.ref.dll"
-r:"Library/Bee/artifacts/2000b0aP.dag/UnityEngine.Purchasing.WinRTStub.ref.dll"
-r:"Library/Bee/artifacts/2000b0aP.dag/UnityEngine.UI.ref.dll"
"Library/PackageCache/com.unity.purchasing@4.8.0/Runtime/Stores/Android/AmazonAppStore/AmazonApps.cs"
"Library/PackageCache/com.unity.purchasing@4.8.0/Runtime/Stores/Android/AmazonAppStore/AmazonAppStoreStoreExtensions.cs"
"Library/PackageCache/com.unity.purchasing@4.8.0/Runtime/Stores/Android/AmazonAppStore/FakeAmazon.cs"
"Library/PackageCache/com.unity.purchasing@4.8.0/Runtime/Stores/Android/AmazonAppStore/IAmazonConfiguration.cs"
"Library/PackageCache/com.unity.purchasing@4.8.0/Runtime/Stores/Android/AmazonAppStore/IAmazonExtensions.cs"
"Library/PackageCache/com.unity.purchasing@4.8.0/Runtime/Stores/Android/AndroidJavaStore.cs"
"Library/PackageCache/com.unity.purchasing@4.8.0/Runtime/Stores/Android/AndroidStore.cs"
"Library/PackageCache/com.unity.purchasing@4.8.0/Runtime/Stores/Android/Common/AAR/AndroidJavaObjectExtensions.cs"
"Library/PackageCache/com.unity.purchasing@4.8.0/Runtime/Stores/Android/Common/AAR/ListExtension.cs"
"Library/PackageCache/com.unity.purchasing@4.8.0/Runtime/Stores/Android/Common/AAR/UnityActivity.cs"
"Library/PackageCache/com.unity.purchasing@4.8.0/Runtime/Stores/Android/GooglePlay/AAR/GoogleCachedQuerySkuDetailsService.cs"
"Library/PackageCache/com.unity.purchasing@4.8.0/Runtime/Stores/Android/GooglePlay/AAR/GoogleFinishTransactionService.cs"
"Library/PackageCache/com.unity.purchasing@4.8.0/Runtime/Stores/Android/GooglePlay/AAR/GoogleLastKnownProductService.cs"
"Library/PackageCache/com.unity.purchasing@4.8.0/Runtime/Stores/Android/GooglePlay/AAR/GooglePlayStoreService.cs"
"Library/PackageCache/com.unity.purchasing@4.8.0/Runtime/Stores/Android/GooglePlay/AAR/GooglePriceChangeService.cs"
"Library/PackageCache/com.unity.purchasing@4.8.0/Runtime/Stores/Android/GooglePlay/AAR/GooglePurchaseService.cs"
"Library/PackageCache/com.unity.purchasing@4.8.0/Runtime/Stores/Android/GooglePlay/AAR/GoogleQueryPurchasesService.cs"
"Library/PackageCache/com.unity.purchasing@4.8.0/Runtime/Stores/Android/GooglePlay/AAR/Interfaces/IAndroidJavaObjectWrapper.cs"
"Library/PackageCache/com.unity.purchasing@4.8.0/Runtime/Stores/Android/GooglePlay/AAR/Interfaces/IBillingClientStateListener.cs"
"Library/PackageCache/com.unity.purchasing@4.8.0/Runtime/Stores/Android/GooglePlay/AAR/Interfaces/IGoogleBillingClient.cs"
"Library/PackageCache/com.unity.purchasing@4.8.0/Runtime/Stores/Android/GooglePlay/AAR/Interfaces/IGoogleBillingResult.cs"
"Library/PackageCache/com.unity.purchasing@4.8.0/Runtime/Stores/Android/GooglePlay/AAR/Interfaces/IGoogleCachedQuerySkuDetailsService.cs"
"Library/PackageCache/com.unity.purchasing@4.8.0/Runtime/Stores/Android/GooglePlay/AAR/Interfaces/IGoogleFinishTransactionService.cs"
"Library/PackageCache/com.unity.purchasing@4.8.0/Runtime/Stores/Android/GooglePlay/AAR/Interfaces/IGoogleLastKnownProductService.cs"
"Library/PackageCache/com.unity.purchasing@4.8.0/Runtime/Stores/Android/GooglePlay/AAR/Interfaces/IGooglePlayStoreService.cs"
"Library/PackageCache/com.unity.purchasing@4.8.0/Runtime/Stores/Android/GooglePlay/AAR/Interfaces/IGooglePriceChangeService.cs"
"Library/PackageCache/com.unity.purchasing@4.8.0/Runtime/Stores/Android/GooglePlay/AAR/Interfaces/IGoogleProductCallback.cs"
"Library/PackageCache/com.unity.purchasing@4.8.0/Runtime/Stores/Android/GooglePlay/AAR/Interfaces/IGooglePurchase.cs"
"Library/PackageCache/com.unity.purchasing@4.8.0/Runtime/Stores/Android/GooglePlay/AAR/Interfaces/IGooglePurchaseBuilder.cs"
"Library/PackageCache/com.unity.purchasing@4.8.0/Runtime/Stores/Android/GooglePlay/AAR/Interfaces/IGooglePurchaseCallback.cs"
"Library/PackageCache/com.unity.purchasing@4.8.0/Runtime/Stores/Android/GooglePlay/AAR/Interfaces/IGooglePurchaseService.cs"
"Library/PackageCache/com.unity.purchasing@4.8.0/Runtime/Stores/Android/GooglePlay/AAR/Interfaces/IGooglePurchaseStateEnumProvider.cs"
"Library/PackageCache/com.unity.purchasing@4.8.0/Runtime/Stores/Android/GooglePlay/AAR/Interfaces/IGooglePurchaseUpdatedListener.cs"
"Library/PackageCache/com.unity.purchasing@4.8.0/Runtime/Stores/Android/GooglePlay/AAR/Interfaces/IGoogleQueryPurchasesService.cs"
"Library/PackageCache/com.unity.purchasing@4.8.0/Runtime/Stores/Android/GooglePlay/AAR/Interfaces/IQuerySkuDetailsService.cs"
"Library/PackageCache/com.unity.purchasing@4.8.0/Runtime/Stores/Android/GooglePlay/AAR/Interfaces/ISkuDetailsConverter.cs"
"Library/PackageCache/com.unity.purchasing@4.8.0/Runtime/Stores/Android/GooglePlay/AAR/Interfaces/ISkuDetailsQueryResponse.cs"
"Library/PackageCache/com.unity.purchasing@4.8.0/Runtime/Stores/Android/GooglePlay/AAR/Interfaces/ISkuDetailsResponseConsolidator.cs"
"Library/PackageCache/com.unity.purchasing@4.8.0/Runtime/Stores/Android/GooglePlay/AAR/Listeners/BillingClientStateListener.cs"
"Library/PackageCache/com.unity.purchasing@4.8.0/Runtime/Stores/Android/GooglePlay/AAR/Listeners/GoogleAcknowledgePurchaseListener.cs"
"Library/PackageCache/com.unity.purchasing@4.8.0/Runtime/Stores/Android/GooglePlay/AAR/Listeners/GoogleConsumeResponseListener.cs"
"Library/PackageCache/com.unity.purchasing@4.8.0/Runtime/Stores/Android/GooglePlay/AAR/Listeners/GooglePriceChangeConfirmationListener.cs"
"Library/PackageCache/com.unity.purchasing@4.8.0/Runtime/Stores/Android/GooglePlay/AAR/Listeners/GooglePurchasesResponseListener.cs"
"Library/PackageCache/com.unity.purchasing@4.8.0/Runtime/Stores/Android/GooglePlay/AAR/Listeners/GooglePurchaseUpdatedListener.cs"
"Library/PackageCache/com.unity.purchasing@4.8.0/Runtime/Stores/Android/GooglePlay/AAR/Listeners/SkuDetailsResponseListener.cs"
"Library/PackageCache/com.unity.purchasing@4.8.0/Runtime/Stores/Android/GooglePlay/AAR/MetricizedGooglePlayStoreService.cs"
"Library/PackageCache/com.unity.purchasing@4.8.0/Runtime/Stores/Android/GooglePlay/AAR/Models/GoogleBillingClient.cs"
"Library/PackageCache/com.unity.purchasing@4.8.0/Runtime/Stores/Android/GooglePlay/AAR/Models/GoogleBillingConnectionState.cs"
"Library/PackageCache/com.unity.purchasing@4.8.0/Runtime/Stores/Android/GooglePlay/AAR/Models/GoogleBillingResult.cs"
"Library/PackageCache/com.unity.purchasing@4.8.0/Runtime/Stores/Android/GooglePlay/AAR/Models/GoogleBillingStrings.cs"
"Library/PackageCache/com.unity.purchasing@4.8.0/Runtime/Stores/Android/GooglePlay/AAR/Models/GooglePurchase.cs"
"Library/PackageCache/com.unity.purchasing@4.8.0/Runtime/Stores/Android/GooglePlay/AAR/Models/GooglePurchaseStateEnum.cs"
"Library/PackageCache/com.unity.purchasing@4.8.0/Runtime/Stores/Android/GooglePlay/AAR/Models/GooglePurchaseStateEnumProvider.cs"
"Library/PackageCache/com.unity.purchasing@4.8.0/Runtime/Stores/Android/GooglePlay/AAR/Models/GoogleRetrieveProductsFailureReason.cs"
"Library/PackageCache/com.unity.purchasing@4.8.0/Runtime/Stores/Android/GooglePlay/AAR/Models/GoogleSkuTypeEnum.cs"
"Library/PackageCache/com.unity.purchasing@4.8.0/Runtime/Stores/Android/GooglePlay/AAR/Models/ProductDescriptionQuery.cs"
"Library/PackageCache/com.unity.purchasing@4.8.0/Runtime/Stores/Android/GooglePlay/AAR/QuerySkuDetailsService.cs"
"Library/PackageCache/com.unity.purchasing@4.8.0/Runtime/Stores/Android/GooglePlay/AAR/SkuDetailsQueryResponse.cs"
"Library/PackageCache/com.unity.purchasing@4.8.0/Runtime/Stores/Android/GooglePlay/AAR/SkuDetailsResponseConsolidator.cs"
"Library/PackageCache/com.unity.purchasing@4.8.0/Runtime/Stores/Android/GooglePlay/AAR/Utils/AndroidJavaObjectWrapper.cs"
"Library/PackageCache/com.unity.purchasing@4.8.0/Runtime/Stores/Android/GooglePlay/AAR/Utils/GooglePurchaseBuilder.cs"
"Library/PackageCache/com.unity.purchasing@4.8.0/Runtime/Stores/Android/GooglePlay/AAR/Utils/GoogleReceiptEncoder.cs"
"Library/PackageCache/com.unity.purchasing@4.8.0/Runtime/Stores/Android/GooglePlay/AAR/Utils/SkuDetailsConverter.cs"
"Library/PackageCache/com.unity.purchasing@4.8.0/Runtime/Stores/Android/GooglePlay/FakeGooglePlayStoreConfiguration.cs"
"Library/PackageCache/com.unity.purchasing@4.8.0/Runtime/Stores/Android/GooglePlay/FakeGooglePlayStoreExtensions.cs"
"Library/PackageCache/com.unity.purchasing@4.8.0/Runtime/Stores/Android/GooglePlay/GetGoogleProductMetadataExtension.cs"
"Library/PackageCache/com.unity.purchasing@4.8.0/Runtime/Stores/Android/GooglePlay/GooglePlay.cs"
"Library/PackageCache/com.unity.purchasing@4.8.0/Runtime/Stores/Android/GooglePlay/GooglePlayConfiguration.cs"
"Library/PackageCache/com.unity.purchasing@4.8.0/Runtime/Stores/Android/GooglePlay/GooglePlayProductCallback.cs"
"Library/PackageCache/com.unity.purchasing@4.8.0/Runtime/Stores/Android/GooglePlay/GooglePlayProrationMode.cs"
"Library/PackageCache/com.unity.purchasing@4.8.0/Runtime/Stores/Android/GooglePlay/GooglePlayPurchaseCallback.cs"
"Library/PackageCache/com.unity.purchasing@4.8.0/Runtime/Stores/Android/GooglePlay/GooglePlayStore.cs"
"Library/PackageCache/com.unity.purchasing@4.8.0/Runtime/Stores/Android/GooglePlay/GooglePlayStoreExtensions.cs"
"Library/PackageCache/com.unity.purchasing@4.8.0/Runtime/Stores/Android/GooglePlay/Interfaces/IGooglePlayConfiguration.cs"
"Library/PackageCache/com.unity.purchasing@4.8.0/Runtime/Stores/Android/GooglePlay/Interfaces/IGooglePlayConfigurationInternal.cs"
"Library/PackageCache/com.unity.purchasing@4.8.0/Runtime/Stores/Android/GooglePlay/Interfaces/IGooglePlayStoreExtensions.cs"
"Library/PackageCache/com.unity.purchasing@4.8.0/Runtime/Stores/Android/GooglePlay/Interfaces/IGooglePlayStoreExtensionsInternal.cs"
"Library/PackageCache/com.unity.purchasing@4.8.0/Runtime/Stores/Android/GooglePlay/Interfaces/Services/IGoogleFetchPurchases.cs"
"Library/PackageCache/com.unity.purchasing@4.8.0/Runtime/Stores/Android/GooglePlay/Interfaces/Services/IGooglePlayStoreFinishTransactionService.cs"
"Library/PackageCache/com.unity.purchasing@4.8.0/Runtime/Stores/Android/GooglePlay/Interfaces/Services/IGooglePlayStorePurchaseService.cs"
"Library/PackageCache/com.unity.purchasing@4.8.0/Runtime/Stores/Android/GooglePlay/Interfaces/Services/IGooglePlayStoreRetrieveProductsService.cs"
"Library/PackageCache/com.unity.purchasing@4.8.0/Runtime/Stores/Android/GooglePlay/MetricizedGooglePlayStoreExtensions.cs"
"Library/PackageCache/com.unity.purchasing@4.8.0/Runtime/Stores/Android/GooglePlay/Models/GoogleBillingResponseCode.cs"
"Library/PackageCache/com.unity.purchasing@4.8.0/Runtime/Stores/Android/GooglePlay/Models/GoogleProductMetadata.cs"
"Library/PackageCache/com.unity.purchasing@4.8.0/Runtime/Stores/Android/GooglePlay/Services/GoogleFetchPurchases.cs"
"Library/PackageCache/com.unity.purchasing@4.8.0/Runtime/Stores/Android/GooglePlay/Services/GooglePlayStoreFinishTransactionService.cs"
"Library/PackageCache/com.unity.purchasing@4.8.0/Runtime/Stores/Android/GooglePlay/Services/GooglePlayStorePurchaseService.cs"
"Library/PackageCache/com.unity.purchasing@4.8.0/Runtime/Stores/Android/GooglePlay/Services/GooglePlayStoreRetrieveProductsService.cs"
"Library/PackageCache/com.unity.purchasing@4.8.0/Runtime/Stores/Android/GooglePlay/StoreCallbackExtensionMethods.cs"
"Library/PackageCache/com.unity.purchasing@4.8.0/Runtime/Stores/Android/IAndroidStoreSelection.cs"
"Library/PackageCache/com.unity.purchasing@4.8.0/Runtime/Stores/Android/IUnityCallback.cs"
"Library/PackageCache/com.unity.purchasing@4.8.0/Runtime/Stores/Android/JavaBridge.cs"
"Library/PackageCache/com.unity.purchasing@4.8.0/Runtime/Stores/Android/JSONSerializer.cs"
"Library/PackageCache/com.unity.purchasing@4.8.0/Runtime/Stores/Android/ScriptingStoreCallback.cs"
"Library/PackageCache/com.unity.purchasing@4.8.0/Runtime/Stores/Android/ScriptingUnityCallback.cs"
"Library/PackageCache/com.unity.purchasing@4.8.0/Runtime/Stores/Android/UDP/FakeUDPExtension.cs"
"Library/PackageCache/com.unity.purchasing@4.8.0/Runtime/Stores/Android/UDP/INativeUDPStore.cs"
"Library/PackageCache/com.unity.purchasing@4.8.0/Runtime/Stores/Android/UDP/IUDPExtensions.cs"
"Library/PackageCache/com.unity.purchasing@4.8.0/Runtime/Stores/Android/UDP/UDP.cs"
"Library/PackageCache/com.unity.purchasing@4.8.0/Runtime/Stores/Android/UDP/UDPBindings.cs"
"Library/PackageCache/com.unity.purchasing@4.8.0/Runtime/Stores/Android/UDP/UDPImpl.cs"
"Library/PackageCache/com.unity.purchasing@4.8.0/Runtime/Stores/Android/UDP/UDPReflectionConsts.cs"
"Library/PackageCache/com.unity.purchasing@4.8.0/Runtime/Stores/Android/UDP/UDPReflectionUtil.cs"
"Library/PackageCache/com.unity.purchasing@4.8.0/Runtime/Stores/AppleAppStore/AppleAppStore.cs"
"Library/PackageCache/com.unity.purchasing@4.8.0/Runtime/Stores/AppleAppStore/AppleJsonProductDescriptionsDeserializer.cs"
"Library/PackageCache/com.unity.purchasing@4.8.0/Runtime/Stores/AppleAppStore/AppleProductMetadata.cs"
"Library/PackageCache/com.unity.purchasing@4.8.0/Runtime/Stores/AppleAppStore/AppleStoreImpl.cs"
"Library/PackageCache/com.unity.purchasing@4.8.0/Runtime/Stores/AppleAppStore/FakeAppleConfiguration.cs"
"Library/PackageCache/com.unity.purchasing@4.8.0/Runtime/Stores/AppleAppStore/FakeAppleExtensions.cs"
"Library/PackageCache/com.unity.purchasing@4.8.0/Runtime/Stores/AppleAppStore/GetAppleProductMetadataExtension.cs"
"Library/PackageCache/com.unity.purchasing@4.8.0/Runtime/Stores/AppleAppStore/IAppleConfiguration.cs"
"Library/PackageCache/com.unity.purchasing@4.8.0/Runtime/Stores/AppleAppStore/IAppleExtensions.cs"
"Library/PackageCache/com.unity.purchasing@4.8.0/Runtime/Stores/AppleAppStore/MacAppStore.cs"
"Library/PackageCache/com.unity.purchasing@4.8.0/Runtime/Stores/AppleAppStore/MetricizedAppleStoreImpl.cs"
"Library/PackageCache/com.unity.purchasing@4.8.0/Runtime/Stores/AppStore.cs"
"Library/PackageCache/com.unity.purchasing@4.8.0/Runtime/Stores/AssemblyInfo.cs"
"Library/PackageCache/com.unity.purchasing@4.8.0/Runtime/Stores/BaseStore/INativeStoreProvider.cs"
"Library/PackageCache/com.unity.purchasing@4.8.0/Runtime/Stores/BaseStore/IStoreInternal.cs"
"Library/PackageCache/com.unity.purchasing@4.8.0/Runtime/Stores/BaseStore/JSONStore.cs"
"Library/PackageCache/com.unity.purchasing@4.8.0/Runtime/Stores/BaseStore/MetricizedJsonStore.cs"
"Library/PackageCache/com.unity.purchasing@4.8.0/Runtime/Stores/BaseStore/NativeStoreProvider.cs"
"Library/PackageCache/com.unity.purchasing@4.8.0/Runtime/Stores/FakeStore/DialogRequest.cs"
"Library/PackageCache/com.unity.purchasing@4.8.0/Runtime/Stores/FakeStore/FakeStore.cs"
"Library/PackageCache/com.unity.purchasing@4.8.0/Runtime/Stores/FakeStore/IFakeExtensions.cs"
"Library/PackageCache/com.unity.purchasing@4.8.0/Runtime/Stores/FakeStore/LifecycleNotifier.cs"
"Library/PackageCache/com.unity.purchasing@4.8.0/Runtime/Stores/FakeStore/UIFakeStore.cs"
"Library/PackageCache/com.unity.purchasing@4.8.0/Runtime/Stores/FakeStore/UIFakeStoreDropdown.cs"
"Library/PackageCache/com.unity.purchasing@4.8.0/Runtime/Stores/FakeStore/UIFakeStoreWindow.cs"
"Library/PackageCache/com.unity.purchasing@4.8.0/Runtime/Stores/Networking/QueryHelper.cs"
"Library/PackageCache/com.unity.purchasing@4.8.0/Runtime/Stores/ProductCatalog.cs"
"Library/PackageCache/com.unity.purchasing@4.8.0/Runtime/Stores/ServicesCore/IapCoreInitializeCallback.cs"
"Library/PackageCache/com.unity.purchasing@4.8.0/Runtime/Stores/StandardPurchasingModule.cs"
"Library/PackageCache/com.unity.purchasing@4.8.0/Runtime/Stores/StoreConfiguration.cs"
"Library/PackageCache/com.unity.purchasing@4.8.0/Runtime/Stores/StoreSpecificPurchaseErrorCode.cs"
"Library/PackageCache/com.unity.purchasing@4.8.0/Runtime/Stores/SubscriptionManager.cs"
"Library/PackageCache/com.unity.purchasing@4.8.0/Runtime/Stores/TransactionHistory/FakeTransactionHistoryExtensions.cs"
"Library/PackageCache/com.unity.purchasing@4.8.0/Runtime/Stores/TransactionHistory/ITransactionHistoryExtensions.cs"
"Library/PackageCache/com.unity.purchasing@4.8.0/Runtime/Stores/Util/EnumerableExtensions.cs"
"Library/PackageCache/com.unity.purchasing@4.8.0/Runtime/Stores/Util/ExponentialRetryPolicy.cs"
"Library/PackageCache/com.unity.purchasing@4.8.0/Runtime/Stores/Util/FileReference.cs"
"Library/PackageCache/com.unity.purchasing@4.8.0/Runtime/Stores/Util/IRetryPolicy.cs"
"Library/PackageCache/com.unity.purchasing@4.8.0/Runtime/Stores/Util/JsonProductDescriptionsDeserializer.cs"
"Library/PackageCache/com.unity.purchasing@4.8.0/Runtime/Stores/Util/ProductDefinitionExtensions.cs"
"Library/PackageCache/com.unity.purchasing@4.8.0/Runtime/Stores/Util/UnityUtil.cs"
"Library/PackageCache/com.unity.purchasing@4.8.0/Runtime/Stores/WindowsStore/FakeMicrosoftExtensions.cs"
"Library/PackageCache/com.unity.purchasing@4.8.0/Runtime/Stores/WindowsStore/IMicrosoftConfiguration.cs"
"Library/PackageCache/com.unity.purchasing@4.8.0/Runtime/Stores/WindowsStore/IMicrosoftExtensions.cs"
"Library/PackageCache/com.unity.purchasing@4.8.0/Runtime/Stores/WindowsStore/WindowsStore.cs"
"Library/PackageCache/com.unity.purchasing@4.8.0/Runtime/Stores/WindowsStore/WinRTStore.cs"
-langversion:9.0

/deterministic
/optimize+
/debug:portable
/nologo
/RuntimeMetadataVersion:v4.0.30319

/nowarn:0169
/nowarn:0649
/nowarn:1701
/nowarn:1702
/utf8output
/preferreduilang:en-US
-warn:0

/additionalfile:"Library/Bee/artifacts/2000b0aP.dag/UnityEngine.Purchasing.Stores.AdditionalFile.txt"