%YAML 1.1
%TAG !u! tag:unity3d.com,2011:
--- !u!1 &8613203814553789430
GameObject:
  m_ObjectHideFlags: 0
  m_CorrespondingSourceObject: {fileID: 0}
  m_PrefabInstance: {fileID: 0}
  m_PrefabAsset: {fileID: 0}
  serializedVersion: 6
  m_Component:
  - component: {fileID: 8451913374945288254}
  - component: {fileID: 521019951643201760}
  - component: {fileID: 4346231888284757310}
  m_Layer: 9
  m_Name: GermOBlasterModified
  m_TagString: Untagged
  m_Icon: {fileID: 0}
  m_NavMeshLayer: 0
  m_StaticEditorFlags: 0
  m_IsActive: 1
--- !u!4 &8451913374945288254
Transform:
  m_ObjectHideFlags: 0
  m_CorrespondingSourceObject: {fileID: 0}
  m_PrefabInstance: {fileID: 0}
  m_PrefabAsset: {fileID: 0}
  m_GameObject: {fileID: 8613203814553789430}
  m_LocalRotation: {x: 0, y: 0, z: 0, w: 1}
  m_LocalPosition: {x: 0, y: 0, z: 0}
  m_LocalScale: {x: 1, y: 1, z: 1}
  m_ConstrainProportionsScale: 0
  m_Children:
  - {fileID: 9125261757865891215}
  m_Father: {fileID: 0}
  m_RootOrder: 0
  m_LocalEulerAnglesHint: {x: 0, y: 0, z: 0}
--- !u!114 &521019951643201760
MonoBehaviour:
  m_ObjectHideFlags: 0
  m_CorrespondingSourceObject: {fileID: 0}
  m_PrefabInstance: {fileID: 0}
  m_PrefabAsset: {fileID: 0}
  m_GameObject: {fileID: 8613203814553789430}
  m_Enabled: 1
  m_EditorHideFlags: 0
  m_Script: {fileID: 11500000, guid: 625ccb94bf93077498982c16ee690870, type: 3}
  m_Name: 
  m_EditorClassIdentifier: 
  triggerType: 1
  weaponType: 0
  fireRate: 0.1
  reloadTime: 1.5
  clipSize: 8
  damage: 5
  ammoType: 0
  projectilePrefab: {fileID: 0}
  projectileLaunchForce: 200
  EndPoint: {fileID: 9125261757865890827}
  advancedSettings:
    spreadAngle: 2
    projectilePerShot: 1
    screenShakeMultiplier: 1
  FireAnimationClip: {fileID: 7400006, guid: 36622a955330bc346a249a1e63e61d2a, type: 3}
  ReloadAnimationClip: {fileID: 7400008, guid: 36622a955330bc346a249a1e63e61d2a, type: 3}
  FireAudioClip: {fileID: 8300000, guid: 79c781879da4b6c4f8c7cd79fd034759, type: 3}
  ReloadAudioClip: {fileID: 8300000, guid: 53b8e7c6ac6cd6d49977438b25dacfc7, type: 3}
  PrefabRayTrail: {fileID: 1691346627199228128, guid: bc513dca9b359aa49aac8365c74ad13d,
    type: 3}
  DisabledOnEmpty: 0
  AmmoDisplay: {fileID: 1919817251683802923}
--- !u!82 &4346231888284757310
AudioSource:
  m_ObjectHideFlags: 0
  m_CorrespondingSourceObject: {fileID: 0}
  m_PrefabInstance: {fileID: 0}
  m_PrefabAsset: {fileID: 0}
  m_GameObject: {fileID: 8613203814553789430}
  m_Enabled: 1
  serializedVersion: 4
  OutputAudioMixerGroup: {fileID: 243422288981298744, guid: d145ef7ec5c612648aba1716a7f53ac9,
    type: 2}
  m_audioClip: {fileID: 0}
  m_PlayOnAwake: 1
  m_Volume: 1
  m_Pitch: 1
  Loop: 0
  Mute: 0
  Spatialize: 0
  SpatializePostEffects: 0
  Priority: 128
  DopplerLevel: 1
  MinDistance: 1
  MaxDistance: 500
  Pan2D: 0
  rolloffMode: 0
  BypassEffects: 0
  BypassListenerEffects: 0
  BypassReverbZones: 0
  rolloffCustomCurve:
    serializedVersion: 2
    m_Curve:
    - serializedVersion: 3
      time: 0
      value: 1
      inSlope: 0
      outSlope: 0
      tangentMode: 0
      weightedMode: 0
      inWeight: 0.33333334
      outWeight: 0.33333334
    - serializedVersion: 3
      time: 1
      value: 0
      inSlope: 0
      outSlope: 0
      tangentMode: 0
      weightedMode: 0
      inWeight: 0.33333334
      outWeight: 0.33333334
    m_PreInfinity: 2
    m_PostInfinity: 2
    m_RotationOrder: 4
  panLevelCustomCurve:
    serializedVersion: 2
    m_Curve:
    - serializedVersion: 3
      time: 0
      value: 0
      inSlope: 0
      outSlope: 0
      tangentMode: 0
      weightedMode: 0
      inWeight: 0.33333334
      outWeight: 0.33333334
    m_PreInfinity: 2
    m_PostInfinity: 2
    m_RotationOrder: 4
  spreadCustomCurve:
    serializedVersion: 2
    m_Curve:
    - serializedVersion: 3
      time: 0
      value: 0
      inSlope: 0
      outSlope: 0
      tangentMode: 0
      weightedMode: 0
      inWeight: 0.33333334
      outWeight: 0.33333334
    m_PreInfinity: 2
    m_PostInfinity: 2
    m_RotationOrder: 4
  reverbZoneMixCustomCurve:
    serializedVersion: 2
    m_Curve:
    - serializedVersion: 3
      time: 0
      value: 1
      inSlope: 0
      outSlope: 0
      tangentMode: 0
      weightedMode: 0
      inWeight: 0.33333334
      outWeight: 0.33333334
    m_PreInfinity: 2
    m_PostInfinity: 2
    m_RotationOrder: 4
--- !u!1001 &2198550043461616411
PrefabInstance:
  m_ObjectHideFlags: 0
  serializedVersion: 2
  m_Modification:
    m_TransformParent: {fileID: 9125261757865891211}
    m_Modifications:
    - target: {fileID: 1855924953560784703, guid: 278b664212d79401587c44e39c1420cb,
        type: 3}
      propertyPath: m_FontData.m_BestFit
      value: 1
      objectReference: {fileID: 0}
    - target: {fileID: 1855924953560784703, guid: 278b664212d79401587c44e39c1420cb,
        type: 3}
      propertyPath: m_FontData.m_MaxSize
      value: 250
      objectReference: {fileID: 0}
    - target: {fileID: 1855924953560784703, guid: 278b664212d79401587c44e39c1420cb,
        type: 3}
      propertyPath: m_FontData.m_MinSize
      value: 175
      objectReference: {fileID: 0}
    - target: {fileID: 1855924953560784703, guid: 278b664212d79401587c44e39c1420cb,
        type: 3}
      propertyPath: m_FontData.m_FontSize
      value: 250
      objectReference: {fileID: 0}
    - target: {fileID: 1855924953560784703, guid: 278b664212d79401587c44e39c1420cb,
        type: 3}
      propertyPath: m_FontData.m_AlignByGeometry
      value: 0
      objectReference: {fileID: 0}
    - target: {fileID: 1855924953560784703, guid: 278b664212d79401587c44e39c1420cb,
        type: 3}
      propertyPath: m_FontData.m_VerticalOverflow
      value: 1
      objectReference: {fileID: 0}
    - target: {fileID: 1855924953560784703, guid: 278b664212d79401587c44e39c1420cb,
        type: 3}
      propertyPath: m_FontData.m_HorizontalOverflow
      value: 1
      objectReference: {fileID: 0}
    - target: {fileID: 2984966042765702060, guid: 278b664212d79401587c44e39c1420cb,
        type: 3}
      propertyPath: m_LocalPosition.z
      value: 0.00006346571
      objectReference: {fileID: 0}
    - target: {fileID: 2984966042765702060, guid: 278b664212d79401587c44e39c1420cb,
        type: 3}
      propertyPath: m_AnchoredPosition.x
      value: 0.00038146973
      objectReference: {fileID: 0}
    - target: {fileID: 3129244498064337419, guid: 278b664212d79401587c44e39c1420cb,
        type: 3}
      propertyPath: m_Pivot.x
      value: 0.5
      objectReference: {fileID: 0}
    - target: {fileID: 3129244498064337419, guid: 278b664212d79401587c44e39c1420cb,
        type: 3}
      propertyPath: m_Pivot.y
      value: 0.5
      objectReference: {fileID: 0}
    - target: {fileID: 3129244498064337419, guid: 278b664212d79401587c44e39c1420cb,
        type: 3}
      propertyPath: m_RootOrder
      value: 3
      objectReference: {fileID: 0}
    - target: {fileID: 3129244498064337419, guid: 278b664212d79401587c44e39c1420cb,
        type: 3}
      propertyPath: m_AnchorMax.x
      value: 0
      objectReference: {fileID: 0}
    - target: {fileID: 3129244498064337419, guid: 278b664212d79401587c44e39c1420cb,
        type: 3}
      propertyPath: m_AnchorMax.y
      value: 0
      objectReference: {fileID: 0}
    - target: {fileID: 3129244498064337419, guid: 278b664212d79401587c44e39c1420cb,
        type: 3}
      propertyPath: m_AnchorMin.x
      value: 0
      objectReference: {fileID: 0}
    - target: {fileID: 3129244498064337419, guid: 278b664212d79401587c44e39c1420cb,
        type: 3}
      propertyPath: m_AnchorMin.y
      value: 0
      objectReference: {fileID: 0}
    - target: {fileID: 3129244498064337419, guid: 278b664212d79401587c44e39c1420cb,
        type: 3}
      propertyPath: m_SizeDelta.x
      value: 500
      objectReference: {fileID: 0}
    - target: {fileID: 3129244498064337419, guid: 278b664212d79401587c44e39c1420cb,
        type: 3}
      propertyPath: m_SizeDelta.y
      value: 500
      objectReference: {fileID: 0}
    - target: {fileID: 3129244498064337419, guid: 278b664212d79401587c44e39c1420cb,
        type: 3}
      propertyPath: m_LocalPosition.x
      value: 0
      objectReference: {fileID: 0}
    - target: {fileID: 3129244498064337419, guid: 278b664212d79401587c44e39c1420cb,
        type: 3}
      propertyPath: m_LocalPosition.y
      value: 0
      objectReference: {fileID: 0}
    - target: {fileID: 3129244498064337419, guid: 278b664212d79401587c44e39c1420cb,
        type: 3}
      propertyPath: m_LocalPosition.z
      value: -0.055
      objectReference: {fileID: 0}
    - target: {fileID: 3129244498064337419, guid: 278b664212d79401587c44e39c1420cb,
        type: 3}
      propertyPath: m_LocalRotation.w
      value: 0.9531548
      objectReference: {fileID: 0}
    - target: {fileID: 3129244498064337419, guid: 278b664212d79401587c44e39c1420cb,
        type: 3}
      propertyPath: m_LocalRotation.x
      value: 0.30248293
      objectReference: {fileID: 0}
    - target: {fileID: 3129244498064337419, guid: 278b664212d79401587c44e39c1420cb,
        type: 3}
      propertyPath: m_LocalRotation.y
      value: 0.000000014901159
      objectReference: {fileID: 0}
    - target: {fileID: 3129244498064337419, guid: 278b664212d79401587c44e39c1420cb,
        type: 3}
      propertyPath: m_LocalRotation.z
      value: 0.00000008940696
      objectReference: {fileID: 0}
    - target: {fileID: 3129244498064337419, guid: 278b664212d79401587c44e39c1420cb,
        type: 3}
      propertyPath: m_AnchoredPosition.x
      value: -0
      objectReference: {fileID: 0}
    - target: {fileID: 3129244498064337419, guid: 278b664212d79401587c44e39c1420cb,
        type: 3}
      propertyPath: m_AnchoredPosition.y
      value: 0.0908
      objectReference: {fileID: 0}
    - target: {fileID: 3129244498064337419, guid: 278b664212d79401587c44e39c1420cb,
        type: 3}
      propertyPath: m_LocalEulerAnglesHint.x
      value: 35.214
      objectReference: {fileID: 0}
    - target: {fileID: 3129244498064337419, guid: 278b664212d79401587c44e39c1420cb,
        type: 3}
      propertyPath: m_LocalEulerAnglesHint.y
      value: 0
      objectReference: {fileID: 0}
    - target: {fileID: 3129244498064337419, guid: 278b664212d79401587c44e39c1420cb,
        type: 3}
      propertyPath: m_LocalEulerAnglesHint.z
      value: 0
      objectReference: {fileID: 0}
    - target: {fileID: 4607046973441598481, guid: 278b664212d79401587c44e39c1420cb,
        type: 3}
      propertyPath: m_Name
      value: AmmoCanvas
      objectReference: {fileID: 0}
    m_RemovedComponents: []
  m_SourcePrefab: {fileID: 100100000, guid: 278b664212d79401587c44e39c1420cb, type: 3}
--- !u!114 &1919817251683802923 stripped
MonoBehaviour:
  m_CorrespondingSourceObject: {fileID: 299029795754515504, guid: 278b664212d79401587c44e39c1420cb,
    type: 3}
  m_PrefabInstance: {fileID: 2198550043461616411}
  m_PrefabAsset: {fileID: 0}
  m_GameObject: {fileID: 0}
  m_Enabled: 1
  m_EditorHideFlags: 0
  m_Script: {fileID: 11500000, guid: afe22501cc537fe4b94f496c66ad6c0d, type: 3}
  m_Name: 
  m_EditorClassIdentifier: 
--- !u!1001 &9125261757865758479
PrefabInstance:
  m_ObjectHideFlags: 0
  serializedVersion: 2
  m_Modification:
    m_TransformParent: {fileID: 8451913374945288254}
    m_Modifications:
    - target: {fileID: 100000, guid: 36622a955330bc346a249a1e63e61d2a, type: 3}
      propertyPath: m_Name
      value: GermOBlasterAnimations
      objectReference: {fileID: 0}
    - target: {fileID: 100000, guid: 36622a955330bc346a249a1e63e61d2a, type: 3}
      propertyPath: m_Layer
      value: 9
      objectReference: {fileID: 0}
    - target: {fileID: 100002, guid: 36622a955330bc346a249a1e63e61d2a, type: 3}
      propertyPath: m_Layer
      value: 9
      objectReference: {fileID: 0}
    - target: {fileID: 100004, guid: 36622a955330bc346a249a1e63e61d2a, type: 3}
      propertyPath: m_Layer
      value: 9
      objectReference: {fileID: 0}
    - target: {fileID: 100006, guid: 36622a955330bc346a249a1e63e61d2a, type: 3}
      propertyPath: m_Layer
      value: 9
      objectReference: {fileID: 0}
    - target: {fileID: 100008, guid: 36622a955330bc346a249a1e63e61d2a, type: 3}
      propertyPath: m_Layer
      value: 9
      objectReference: {fileID: 0}
    - target: {fileID: 100010, guid: 36622a955330bc346a249a1e63e61d2a, type: 3}
      propertyPath: m_Layer
      value: 9
      objectReference: {fileID: 0}
    - target: {fileID: 100012, guid: 36622a955330bc346a249a1e63e61d2a, type: 3}
      propertyPath: m_Layer
      value: 9
      objectReference: {fileID: 0}
    - target: {fileID: 100014, guid: 36622a955330bc346a249a1e63e61d2a, type: 3}
      propertyPath: m_Layer
      value: 9
      objectReference: {fileID: 0}
    - target: {fileID: 100016, guid: 36622a955330bc346a249a1e63e61d2a, type: 3}
      propertyPath: m_Layer
      value: 9
      objectReference: {fileID: 0}
    - target: {fileID: 100018, guid: 36622a955330bc346a249a1e63e61d2a, type: 3}
      propertyPath: m_Layer
      value: 9
      objectReference: {fileID: 0}
    - target: {fileID: 100020, guid: 36622a955330bc346a249a1e63e61d2a, type: 3}
      propertyPath: m_Layer
      value: 9
      objectReference: {fileID: 0}
    - target: {fileID: 100022, guid: 36622a955330bc346a249a1e63e61d2a, type: 3}
      propertyPath: m_Layer
      value: 9
      objectReference: {fileID: 0}
    - target: {fileID: 100024, guid: 36622a955330bc346a249a1e63e61d2a, type: 3}
      propertyPath: m_Layer
      value: 9
      objectReference: {fileID: 0}
    - target: {fileID: 100026, guid: 36622a955330bc346a249a1e63e61d2a, type: 3}
      propertyPath: m_Layer
      value: 9
      objectReference: {fileID: 0}
    - target: {fileID: 100028, guid: 36622a955330bc346a249a1e63e61d2a, type: 3}
      propertyPath: m_Layer
      value: 9
      objectReference: {fileID: 0}
    - target: {fileID: 100030, guid: 36622a955330bc346a249a1e63e61d2a, type: 3}
      propertyPath: m_Layer
      value: 9
      objectReference: {fileID: 0}
    - target: {fileID: 100032, guid: 36622a955330bc346a249a1e63e61d2a, type: 3}
      propertyPath: m_Layer
      value: 9
      objectReference: {fileID: 0}
    - target: {fileID: 100034, guid: 36622a955330bc346a249a1e63e61d2a, type: 3}
      propertyPath: m_Layer
      value: 9
      objectReference: {fileID: 0}
    - target: {fileID: 100036, guid: 36622a955330bc346a249a1e63e61d2a, type: 3}
      propertyPath: m_Layer
      value: 9
      objectReference: {fileID: 0}
    - target: {fileID: 100038, guid: 36622a955330bc346a249a1e63e61d2a, type: 3}
      propertyPath: m_Layer
      value: 9
      objectReference: {fileID: 0}
    - target: {fileID: 100040, guid: 36622a955330bc346a249a1e63e61d2a, type: 3}
      propertyPath: m_Layer
      value: 9
      objectReference: {fileID: 0}
    - target: {fileID: 100042, guid: 36622a955330bc346a249a1e63e61d2a, type: 3}
      propertyPath: m_Layer
      value: 9
      objectReference: {fileID: 0}
    - target: {fileID: 100044, guid: 36622a955330bc346a249a1e63e61d2a, type: 3}
      propertyPath: m_Layer
      value: 9
      objectReference: {fileID: 0}
    - target: {fileID: 100046, guid: 36622a955330bc346a249a1e63e61d2a, type: 3}
      propertyPath: m_Layer
      value: 9
      objectReference: {fileID: 0}
    - target: {fileID: 100048, guid: 36622a955330bc346a249a1e63e61d2a, type: 3}
      propertyPath: m_Layer
      value: 9
      objectReference: {fileID: 0}
    - target: {fileID: 100050, guid: 36622a955330bc346a249a1e63e61d2a, type: 3}
      propertyPath: m_Layer
      value: 9
      objectReference: {fileID: 0}
    - target: {fileID: 100052, guid: 36622a955330bc346a249a1e63e61d2a, type: 3}
      propertyPath: m_Layer
      value: 9
      objectReference: {fileID: 0}
    - target: {fileID: 100054, guid: 36622a955330bc346a249a1e63e61d2a, type: 3}
      propertyPath: m_Layer
      value: 9
      objectReference: {fileID: 0}
    - target: {fileID: 100056, guid: 36622a955330bc346a249a1e63e61d2a, type: 3}
      propertyPath: m_Layer
      value: 9
      objectReference: {fileID: 0}
    - target: {fileID: 100058, guid: 36622a955330bc346a249a1e63e61d2a, type: 3}
      propertyPath: m_Layer
      value: 9
      objectReference: {fileID: 0}
    - target: {fileID: 100060, guid: 36622a955330bc346a249a1e63e61d2a, type: 3}
      propertyPath: m_Layer
      value: 9
      objectReference: {fileID: 0}
    - target: {fileID: 100062, guid: 36622a955330bc346a249a1e63e61d2a, type: 3}
      propertyPath: m_Layer
      value: 9
      objectReference: {fileID: 0}
    - target: {fileID: 100064, guid: 36622a955330bc346a249a1e63e61d2a, type: 3}
      propertyPath: m_Layer
      value: 9
      objectReference: {fileID: 0}
    - target: {fileID: 100066, guid: 36622a955330bc346a249a1e63e61d2a, type: 3}
      propertyPath: m_Layer
      value: 9
      objectReference: {fileID: 0}
    - target: {fileID: 100068, guid: 36622a955330bc346a249a1e63e61d2a, type: 3}
      propertyPath: m_Layer
      value: 9
      objectReference: {fileID: 0}
    - target: {fileID: 100070, guid: 36622a955330bc346a249a1e63e61d2a, type: 3}
      propertyPath: m_Layer
      value: 9
      objectReference: {fileID: 0}
    - target: {fileID: 100072, guid: 36622a955330bc346a249a1e63e61d2a, type: 3}
      propertyPath: m_Layer
      value: 9
      objectReference: {fileID: 0}
    - target: {fileID: 100074, guid: 36622a955330bc346a249a1e63e61d2a, type: 3}
      propertyPath: m_Layer
      value: 9
      objectReference: {fileID: 0}
    - target: {fileID: 100076, guid: 36622a955330bc346a249a1e63e61d2a, type: 3}
      propertyPath: m_Layer
      value: 9
      objectReference: {fileID: 0}
    - target: {fileID: 100078, guid: 36622a955330bc346a249a1e63e61d2a, type: 3}
      propertyPath: m_Layer
      value: 9
      objectReference: {fileID: 0}
    - target: {fileID: 100080, guid: 36622a955330bc346a249a1e63e61d2a, type: 3}
      propertyPath: m_Layer
      value: 9
      objectReference: {fileID: 0}
    - target: {fileID: 100082, guid: 36622a955330bc346a249a1e63e61d2a, type: 3}
      propertyPath: m_Layer
      value: 9
      objectReference: {fileID: 0}
    - target: {fileID: 100084, guid: 36622a955330bc346a249a1e63e61d2a, type: 3}
      propertyPath: m_Layer
      value: 9
      objectReference: {fileID: 0}
    - target: {fileID: 100086, guid: 36622a955330bc346a249a1e63e61d2a, type: 3}
      propertyPath: m_Layer
      value: 9
      objectReference: {fileID: 0}
    - target: {fileID: 100088, guid: 36622a955330bc346a249a1e63e61d2a, type: 3}
      propertyPath: m_Layer
      value: 9
      objectReference: {fileID: 0}
    - target: {fileID: 100090, guid: 36622a955330bc346a249a1e63e61d2a, type: 3}
      propertyPath: m_Layer
      value: 9
      objectReference: {fileID: 0}
    - target: {fileID: 100092, guid: 36622a955330bc346a249a1e63e61d2a, type: 3}
      propertyPath: m_Layer
      value: 9
      objectReference: {fileID: 0}
    - target: {fileID: 100094, guid: 36622a955330bc346a249a1e63e61d2a, type: 3}
      propertyPath: m_Layer
      value: 9
      objectReference: {fileID: 0}
    - target: {fileID: 100096, guid: 36622a955330bc346a249a1e63e61d2a, type: 3}
      propertyPath: m_Layer
      value: 9
      objectReference: {fileID: 0}
    - target: {fileID: 100098, guid: 36622a955330bc346a249a1e63e61d2a, type: 3}
      propertyPath: m_Layer
      value: 9
      objectReference: {fileID: 0}
    - target: {fileID: 100100, guid: 36622a955330bc346a249a1e63e61d2a, type: 3}
      propertyPath: m_Layer
      value: 9
      objectReference: {fileID: 0}
    - target: {fileID: 100102, guid: 36622a955330bc346a249a1e63e61d2a, type: 3}
      propertyPath: m_Layer
      value: 9
      objectReference: {fileID: 0}
    - target: {fileID: 100104, guid: 36622a955330bc346a249a1e63e61d2a, type: 3}
      propertyPath: m_Layer
      value: 9
      objectReference: {fileID: 0}
    - target: {fileID: 100106, guid: 36622a955330bc346a249a1e63e61d2a, type: 3}
      propertyPath: m_Layer
      value: 9
      objectReference: {fileID: 0}
    - target: {fileID: 100108, guid: 36622a955330bc346a249a1e63e61d2a, type: 3}
      propertyPath: m_Layer
      value: 9
      objectReference: {fileID: 0}
    - target: {fileID: 100110, guid: 36622a955330bc346a249a1e63e61d2a, type: 3}
      propertyPath: m_Layer
      value: 9
      objectReference: {fileID: 0}
    - target: {fileID: 100112, guid: 36622a955330bc346a249a1e63e61d2a, type: 3}
      propertyPath: m_Layer
      value: 9
      objectReference: {fileID: 0}
    - target: {fileID: 100114, guid: 36622a955330bc346a249a1e63e61d2a, type: 3}
      propertyPath: m_Layer
      value: 9
      objectReference: {fileID: 0}
    - target: {fileID: 100116, guid: 36622a955330bc346a249a1e63e61d2a, type: 3}
      propertyPath: m_Layer
      value: 9
      objectReference: {fileID: 0}
    - target: {fileID: 100118, guid: 36622a955330bc346a249a1e63e61d2a, type: 3}
      propertyPath: m_Layer
      value: 9
      objectReference: {fileID: 0}
    - target: {fileID: 100120, guid: 36622a955330bc346a249a1e63e61d2a, type: 3}
      propertyPath: m_Layer
      value: 9
      objectReference: {fileID: 0}
    - target: {fileID: 100122, guid: 36622a955330bc346a249a1e63e61d2a, type: 3}
      propertyPath: m_Layer
      value: 9
      objectReference: {fileID: 0}
    - target: {fileID: 100128, guid: 36622a955330bc346a249a1e63e61d2a, type: 3}
      propertyPath: m_Layer
      value: 9
      objectReference: {fileID: 0}
    - target: {fileID: 100130, guid: 36622a955330bc346a249a1e63e61d2a, type: 3}
      propertyPath: m_Layer
      value: 9
      objectReference: {fileID: 0}
    - target: {fileID: 100132, guid: 36622a955330bc346a249a1e63e61d2a, type: 3}
      propertyPath: m_Layer
      value: 9
      objectReference: {fileID: 0}
    - target: {fileID: 100134, guid: 36622a955330bc346a249a1e63e61d2a, type: 3}
      propertyPath: m_Layer
      value: 9
      objectReference: {fileID: 0}
    - target: {fileID: 100136, guid: 36622a955330bc346a249a1e63e61d2a, type: 3}
      propertyPath: m_Layer
      value: 9
      objectReference: {fileID: 0}
    - target: {fileID: 100138, guid: 36622a955330bc346a249a1e63e61d2a, type: 3}
      propertyPath: m_Layer
      value: 9
      objectReference: {fileID: 0}
    - target: {fileID: 100140, guid: 36622a955330bc346a249a1e63e61d2a, type: 3}
      propertyPath: m_Layer
      value: 9
      objectReference: {fileID: 0}
    - target: {fileID: 100142, guid: 36622a955330bc346a249a1e63e61d2a, type: 3}
      propertyPath: m_Layer
      value: 9
      objectReference: {fileID: 0}
    - target: {fileID: 100144, guid: 36622a955330bc346a249a1e63e61d2a, type: 3}
      propertyPath: m_Layer
      value: 9
      objectReference: {fileID: 0}
    - target: {fileID: 400000, guid: 36622a955330bc346a249a1e63e61d2a, type: 3}
      propertyPath: m_RootOrder
      value: 0
      objectReference: {fileID: 0}
    - target: {fileID: 400000, guid: 36622a955330bc346a249a1e63e61d2a, type: 3}
      propertyPath: m_LocalPosition.x
      value: 0
      objectReference: {fileID: 0}
    - target: {fileID: 400000, guid: 36622a955330bc346a249a1e63e61d2a, type: 3}
      propertyPath: m_LocalPosition.y
      value: 0
      objectReference: {fileID: 0}
    - target: {fileID: 400000, guid: 36622a955330bc346a249a1e63e61d2a, type: 3}
      propertyPath: m_LocalPosition.z
      value: 0
      objectReference: {fileID: 0}
    - target: {fileID: 400000, guid: 36622a955330bc346a249a1e63e61d2a, type: 3}
      propertyPath: m_LocalRotation.w
      value: 1
      objectReference: {fileID: 0}
    - target: {fileID: 400000, guid: 36622a955330bc346a249a1e63e61d2a, type: 3}
      propertyPath: m_LocalRotation.x
      value: 0
      objectReference: {fileID: 0}
    - target: {fileID: 400000, guid: 36622a955330bc346a249a1e63e61d2a, type: 3}
      propertyPath: m_LocalRotation.y
      value: 0
      objectReference: {fileID: 0}
    - target: {fileID: 400000, guid: 36622a955330bc346a249a1e63e61d2a, type: 3}
      propertyPath: m_LocalRotation.z
      value: 0
      objectReference: {fileID: 0}
    - target: {fileID: 400000, guid: 36622a955330bc346a249a1e63e61d2a, type: 3}
      propertyPath: m_LocalEulerAnglesHint.x
      value: 0
      objectReference: {fileID: 0}
    - target: {fileID: 400000, guid: 36622a955330bc346a249a1e63e61d2a, type: 3}
      propertyPath: m_LocalEulerAnglesHint.y
      value: 0
      objectReference: {fileID: 0}
    - target: {fileID: 400000, guid: 36622a955330bc346a249a1e63e61d2a, type: 3}
      propertyPath: m_LocalEulerAnglesHint.z
      value: 0
      objectReference: {fileID: 0}
    - target: {fileID: 2300000, guid: 36622a955330bc346a249a1e63e61d2a, type: 3}
      propertyPath: m_Materials.Array.data[0]
      value: 
      objectReference: {fileID: 2100000, guid: f9cc11d7c3cc75847b26ab2a841311d4, type: 2}
    - target: {fileID: 2300002, guid: 36622a955330bc346a249a1e63e61d2a, type: 3}
      propertyPath: m_Materials.Array.data[0]
      value: 
      objectReference: {fileID: 2100000, guid: f9cc11d7c3cc75847b26ab2a841311d4, type: 2}
    - target: {fileID: 2300004, guid: 36622a955330bc346a249a1e63e61d2a, type: 3}
      propertyPath: m_Materials.Array.data[0]
      value: 
      objectReference: {fileID: 2100000, guid: f9cc11d7c3cc75847b26ab2a841311d4, type: 2}
    - target: {fileID: 2300006, guid: 36622a955330bc346a249a1e63e61d2a, type: 3}
      propertyPath: m_Materials.Array.data[0]
      value: 
      objectReference: {fileID: 2100000, guid: f9cc11d7c3cc75847b26ab2a841311d4, type: 2}
    - target: {fileID: 2300008, guid: 36622a955330bc346a249a1e63e61d2a, type: 3}
      propertyPath: m_Materials.Array.data[0]
      value: 
      objectReference: {fileID: 2100000, guid: f9cc11d7c3cc75847b26ab2a841311d4, type: 2}
    - target: {fileID: 2300010, guid: 36622a955330bc346a249a1e63e61d2a, type: 3}
      propertyPath: m_Materials.Array.data[0]
      value: 
      objectReference: {fileID: 2100000, guid: f9cc11d7c3cc75847b26ab2a841311d4, type: 2}
    m_RemovedComponents: []
  m_SourcePrefab: {fileID: 100100000, guid: 36622a955330bc346a249a1e63e61d2a, type: 3}
--- !u!1 &9125261757865658799 stripped
GameObject:
  m_CorrespondingSourceObject: {fileID: 100000, guid: 36622a955330bc346a249a1e63e61d2a,
    type: 3}
  m_PrefabInstance: {fileID: 9125261757865758479}
  m_PrefabAsset: {fileID: 0}
--- !u!95 &3303798232142447586
Animator:
  serializedVersion: 5
  m_ObjectHideFlags: 0
  m_CorrespondingSourceObject: {fileID: 0}
  m_PrefabInstance: {fileID: 0}
  m_PrefabAsset: {fileID: 0}
  m_GameObject: {fileID: 9125261757865658799}
  m_Enabled: 1
  m_Avatar: {fileID: 9000000, guid: 04a606b2e3a6fac4598733407be70d7b, type: 3}
  m_Controller: {fileID: 22100000, guid: b90060196e74df248bf3fcea7d9f5a38, type: 2}
  m_CullingMode: 0
  m_UpdateMode: 0
  m_ApplyRootMotion: 0
  m_LinearVelocityBlending: 0
  m_StabilizeFeet: 0
  m_WarningMessage: 
  m_HasTransformHierarchy: 1
  m_AllowConstantClipSamplingOptimization: 1
  m_KeepAnimatorStateOnDisable: 0
  m_WriteDefaultValuesOnDisable: 0
--- !u!4 &9125261757865890827 stripped
Transform:
  m_CorrespondingSourceObject: {fileID: 400132, guid: 36622a955330bc346a249a1e63e61d2a,
    type: 3}
  m_PrefabInstance: {fileID: 9125261757865758479}
  m_PrefabAsset: {fileID: 0}
--- !u!4 &9125261757865891211 stripped
Transform:
  m_CorrespondingSourceObject: {fileID: 400004, guid: 36622a955330bc346a249a1e63e61d2a,
    type: 3}
  m_PrefabInstance: {fileID: 9125261757865758479}
  m_PrefabAsset: {fileID: 0}
--- !u!4 &9125261757865891215 stripped
Transform:
  m_CorrespondingSourceObject: {fileID: 400000, guid: 36622a955330bc346a249a1e63e61d2a,
    type: 3}
  m_PrefabInstance: {fileID: 9125261757865758479}
  m_PrefabAsset: {fileID: 0}
