Library\Bee\artifacts\mvdfrm\UnityEngine.UI.ref.dll_FAE6DBEA21006BE5.mvfrm
Library\Bee\artifacts\mvdfrm\Unity.VisualScripting.Antlr3.Runtime.dll_80E5AA8B6DACA0E8.mvfrm
Library\Bee\artifacts\mvdfrm\UnityEngine.AccessibilityModule.dll_422A28340553107C.mvfrm
Library\Bee\artifacts\mvdfrm\UnityEngine.AIModule.dll_E60A0DF2CCB2573E.mvfrm
Library\Bee\artifacts\mvdfrm\UnityEngine.AndroidJNIModule.dll_23C5D2479BAEBBFC.mvfrm
Library\Bee\artifacts\mvdfrm\UnityEngine.AnimationModule.dll_16288ED998357022.mvfrm
Library\Bee\artifacts\mvdfrm\UnityEngine.ARModule.dll_9F7CD2F629CFB607.mvfrm
Library\Bee\artifacts\mvdfrm\UnityEngine.AssetBundleModule.dll_B0CE79AABFF3BF90.mvfrm
Library\Bee\artifacts\mvdfrm\UnityEngine.AudioModule.dll_1971B6DA832AF894.mvfrm
Library\Bee\artifacts\mvdfrm\UnityEngine.ClothModule.dll_805A13D55D47D778.mvfrm
Library\Bee\artifacts\mvdfrm\UnityEngine.ClusterInputModule.dll_1ABBC887F992C0A6.mvfrm
Library\Bee\artifacts\mvdfrm\UnityEngine.ClusterRendererModule.dll_817CCAD657F6AF3B.mvfrm
Library\Bee\artifacts\mvdfrm\UnityEngine.CoreModule.dll_B98DFBFDCD509555.mvfrm
Library\Bee\artifacts\mvdfrm\UnityEngine.CrashReportingModule.dll_47758A04C7E9500D.mvfrm
Library\Bee\artifacts\mvdfrm\UnityEngine.DirectorModule.dll_A269AD489B4110B2.mvfrm
Library\Bee\artifacts\mvdfrm\UnityEngine.dll_43A6EB58A55B3430.mvfrm
Library\Bee\artifacts\mvdfrm\UnityEngine.DSPGraphModule.dll_A7BB0EB20DA1E1D3.mvfrm
Library\Bee\artifacts\mvdfrm\UnityEngine.GameCenterModule.dll_4E131C6261EFACED.mvfrm
Library\Bee\artifacts\mvdfrm\UnityEngine.GIModule.dll_7E46570068613F58.mvfrm
Library\Bee\artifacts\mvdfrm\UnityEngine.GridModule.dll_96FF17EBE5A52B4C.mvfrm
Library\Bee\artifacts\mvdfrm\UnityEngine.HotReloadModule.dll_97714CDF73688BA4.mvfrm
Library\Bee\artifacts\mvdfrm\UnityEngine.ImageConversionModule.dll_ED6EC886DA1B672F.mvfrm
Library\Bee\artifacts\mvdfrm\UnityEngine.IMGUIModule.dll_51D15641495C8C75.mvfrm
Library\Bee\artifacts\mvdfrm\UnityEngine.InputLegacyModule.dll_421394C957E57581.mvfrm
Library\Bee\artifacts\mvdfrm\UnityEngine.InputModule.dll_7FE77E8AF9631D38.mvfrm
Library\Bee\artifacts\mvdfrm\UnityEngine.JSONSerializeModule.dll_A241B170048E7106.mvfrm
Library\Bee\artifacts\mvdfrm\UnityEngine.LocalizationModule.dll_590892DA910EB39F.mvfrm
Library\Bee\artifacts\mvdfrm\UnityEngine.ParticleSystemModule.dll_9A87D35135FADB9B.mvfrm
Library\Bee\artifacts\mvdfrm\UnityEngine.PerformanceReportingModule.dll_B7FEC45AC778BF14.mvfrm
Library\Bee\artifacts\mvdfrm\UnityEngine.Physics2DModule.dll_62CE7ECA393267B7.mvfrm
Library\Bee\artifacts\mvdfrm\UnityEngine.PhysicsModule.dll_26EEE8F29F7C3DE5.mvfrm
Library\Bee\artifacts\mvdfrm\UnityEngine.ProfilerModule.dll_D4AFE67F349A97BF.mvfrm
Library\Bee\artifacts\mvdfrm\UnityEngine.RuntimeInitializeOnLoadManagerInitializerModule.dll_829C25E72AEDC680.mvfrm
Library\Bee\artifacts\mvdfrm\UnityEngine.ScreenCaptureModule.dll_BC295EF518FA9D68.mvfrm
Library\Bee\artifacts\mvdfrm\UnityEngine.SharedInternalsModule.dll_7180075C5149627F.mvfrm
Library\Bee\artifacts\mvdfrm\UnityEngine.SpriteMaskModule.dll_373F8EF2835F4267.mvfrm
Library\Bee\artifacts\mvdfrm\UnityEngine.SpriteShapeModule.dll_CA2FA7057595F79A.mvfrm
Library\Bee\artifacts\mvdfrm\UnityEngine.StreamingModule.dll_CABD7C29E7BD2760.mvfrm
Library\Bee\artifacts\mvdfrm\UnityEngine.SubstanceModule.dll_A76890733310256E.mvfrm
Library\Bee\artifacts\mvdfrm\UnityEngine.SubsystemsModule.dll_A1ECF55451A72A7A.mvfrm
Library\Bee\artifacts\mvdfrm\UnityEngine.TerrainModule.dll_41356461753A86D3.mvfrm
Library\Bee\artifacts\mvdfrm\UnityEngine.TerrainPhysicsModule.dll_9B027C244F3DD628.mvfrm
Library\Bee\artifacts\mvdfrm\UnityEngine.TextCoreFontEngineModule.dll_667AEB3AABC00333.mvfrm
Library\Bee\artifacts\mvdfrm\UnityEngine.TextCoreTextEngineModule.dll_AE6321AC3B43BC51.mvfrm
Library\Bee\artifacts\mvdfrm\UnityEngine.TextRenderingModule.dll_E568D0FFD0321D5D.mvfrm
Library\Bee\artifacts\mvdfrm\UnityEngine.TilemapModule.dll_E031CBE28CF767DC.mvfrm
Library\Bee\artifacts\mvdfrm\UnityEngine.TLSModule.dll_CE1665DEC4710D79.mvfrm
Library\Bee\artifacts\mvdfrm\UnityEngine.UIElementsModule.dll_A62B56BC54D36671.mvfrm
Library\Bee\artifacts\mvdfrm\UnityEngine.UIElementsNativeModule.dll_6ED7DD6E51015728.mvfrm
Library\Bee\artifacts\mvdfrm\UnityEngine.UIModule.dll_E17DAC2028F95CEA.mvfrm
Library\Bee\artifacts\mvdfrm\UnityEngine.UmbraModule.dll_944662F31051A407.mvfrm
Library\Bee\artifacts\mvdfrm\UnityEngine.UNETModule.dll_4C3443E71A5F8ACE.mvfrm
Library\Bee\artifacts\mvdfrm\UnityEngine.UnityAnalyticsCommonModule.dll_533D819EE1615D72.mvfrm
Library\Bee\artifacts\mvdfrm\UnityEngine.UnityAnalyticsModule.dll_BA27441AE2222D97.mvfrm
Library\Bee\artifacts\mvdfrm\UnityEngine.UnityConnectModule.dll_887ED7814292EE8B.mvfrm
Library\Bee\artifacts\mvdfrm\UnityEngine.UnityCurlModule.dll_4945300B0849620F.mvfrm
Library\Bee\artifacts\mvdfrm\UnityEngine.UnityTestProtocolModule.dll_F61F089728A77DFD.mvfrm
Library\Bee\artifacts\mvdfrm\UnityEngine.UnityWebRequestAssetBundleModule.dll_AC6FBC21632829A8.mvfrm
Library\Bee\artifacts\mvdfrm\UnityEngine.UnityWebRequestAudioModule.dll_2FFB18394DE389AC.mvfrm
Library\Bee\artifacts\mvdfrm\UnityEngine.UnityWebRequestModule.dll_FF0DD030E51001AE.mvfrm
Library\Bee\artifacts\mvdfrm\UnityEngine.UnityWebRequestTextureModule.dll_454211B2E2DF4D01.mvfrm
Library\Bee\artifacts\mvdfrm\UnityEngine.UnityWebRequestWWWModule.dll_792567082B0378BD.mvfrm
Library\Bee\artifacts\mvdfrm\UnityEngine.VehiclesModule.dll_1A2CA6C8156AE04D.mvfrm
Library\Bee\artifacts\mvdfrm\UnityEngine.VFXModule.dll_4EF4FE4D9ADE76E6.mvfrm
Library\Bee\artifacts\mvdfrm\UnityEngine.VideoModule.dll_3E7B3B4545BD1439.mvfrm
Library\Bee\artifacts\mvdfrm\UnityEngine.VirtualTexturingModule.dll_936491DD29AFD7B3.mvfrm
Library\Bee\artifacts\mvdfrm\UnityEngine.VRModule.dll_344FD2A5CAB3E262.mvfrm
Library\Bee\artifacts\mvdfrm\UnityEngine.WindModule.dll_2FDCD7265E8713BE.mvfrm
Library\Bee\artifacts\mvdfrm\UnityEngine.XRModule.dll_670E95AA53EE2FC0.mvfrm